Date,Open,High,Low,Close,Adj Close,Volume
2017-11-06,42.740002,43.950001,42.529999,43.939999,43.871193,3543200
2017-11-07,43.830002,43.950001,43.080002,43.590000,43.521740,3766700
2017-11-08,45.750000,46.639999,44.570000,44.889999,44.819706,7176600
2017-11-09,45.330002,46.549999,44.939999,46.320000,46.247467,3684300
2017-11-10,46.660000,46.720001,45.770000,46.689999,46.616886,2854600
2017-11-13,46.630001,47.529999,45.799999,45.830002,45.758236,3975000
2017-11-14,45.599998,45.990002,44.529999,44.570000,44.500206,4677000
2017-11-15,43.790001,45.000000,42.830002,44.840000,44.769783,3367700
2017-11-16,45.000000,45.680000,44.560001,45.520000,45.448719,2618000
2017-11-17,45.950001,46.139999,45.310001,45.919998,45.848091,2543700
2017-11-20,45.430000,45.779999,44.740002,45.250000,45.179142,2100400
2017-11-21,45.639999,46.000000,45.180000,45.540001,45.468689,2115100
2017-11-22,46.349998,46.410000,45.700001,46.240002,46.167591,1774800
2017-11-24,46.689999,46.860001,46.419998,46.730000,46.656822,662100
2017-11-27,46.240002,46.320000,44.990002,45.139999,45.069313,1543400
2017-11-28,45.099998,45.759998,44.779999,45.570000,45.498642,1320900
2017-11-29,45.599998,46.169998,45.349998,46.049999,45.977886,1548100
2017-11-30,46.650002,48.119999,46.590000,47.330002,47.255886,2961100
2017-12-01,47.950001,48.990002,47.759998,48.470001,48.394100,2267200
2017-12-04,48.230000,48.740002,47.630001,47.810001,47.735134,2043900
2017-12-05,47.520000,48.020000,47.180000,47.410000,47.335758,1222500
2017-12-06,46.799999,47.189999,46.250000,46.590000,46.517044,1417200
2017-12-07,46.560001,47.209999,46.340000,47.080002,47.006279,1183400
2017-12-08,47.750000,48.180000,47.349998,47.930000,47.854946,1207200
2017-12-11,48.139999,48.389999,47.810001,48.070000,47.994724,1146200
2017-12-12,48.599998,49.290001,47.880001,48.049999,47.974754,2197600
2017-12-13,48.180000,48.369999,47.090000,47.310001,47.235916,2245000
2017-12-14,47.619999,48.099998,47.279999,47.360001,47.285839,2890600
2017-12-15,47.639999,47.830002,47.040001,47.200001,47.126087,1733600
2017-12-18,47.840000,48.689999,47.279999,48.340000,48.264301,2578100
2017-12-19,48.689999,49.389999,48.310001,48.349998,48.274284,1740800
2017-12-20,48.750000,49.810001,48.240002,49.610001,49.532314,2323200
2017-12-21,49.700001,51.389999,49.560001,51.250000,51.169746,2075400
2017-12-22,51.389999,52.540001,50.930000,51.900002,51.818729,1465800
2017-12-26,52.090000,53.439999,51.799999,53.410000,53.326363,1188200
2017-12-27,53.360001,53.529999,52.730000,53.290001,53.206551,1611500
2017-12-28,53.349998,53.540001,52.840000,52.919998,52.837128,1601600
2017-12-29,53.150002,53.549999,52.470001,52.970001,52.887054,1556200
2018-01-02,53.410000,54.279999,53.330002,54.259998,54.175030,1974900
2018-01-03,54.630001,55.360001,54.520000,54.939999,54.853966,1815300
2018-01-04,55.090000,55.290001,54.430000,55.110001,55.023701,1436500
2018-01-05,54.860001,55.330002,54.400002,55.240002,55.153500,1409700
2018-01-08,55.500000,55.689999,54.810001,55.619999,55.532902,1507000
2018-01-09,55.849998,56.400002,55.459999,55.470001,55.383141,1505100
2018-01-10,55.599998,56.730000,55.279999,56.520000,56.431496,2598800
2018-01-11,56.930000,58.889999,56.860001,58.330002,58.238663,2373100
2018-01-12,57.840000,58.320000,57.259998,57.660000,57.569710,2144800
2018-01-16,57.900002,57.900002,56.810001,56.930000,56.840851,2548300
2018-01-17,56.900002,57.689999,56.320000,57.180000,57.090462,2340800
2018-01-18,56.919998,57.049999,55.560001,55.650002,55.562859,2651000
2018-01-19,54.930000,55.549999,54.849998,55.169998,55.083607,1810500
2018-01-22,55.360001,56.549999,55.259998,56.520000,56.431496,1831200
2018-01-23,56.720001,57.389999,56.200001,57.040001,56.950680,2233100
2018-01-24,57.279999,57.910000,56.360001,57.439999,57.350052,2200800
2018-01-25,57.799999,57.799999,56.860001,57.070000,56.980633,1777800
2018-01-26,57.259998,57.840000,57.029999,57.630001,57.539757,1242500
2018-01-29,57.110001,57.759998,56.599998,56.669998,56.581257,1792400
2018-01-30,55.549999,55.680000,53.910000,54.680000,54.594376,3450200
2018-01-31,54.540001,55.779999,54.540001,55.529999,55.443043,1903300
2018-02-01,55.599998,56.720001,55.549999,56.610001,56.521355,2727000
2018-02-02,55.540001,55.799999,53.560001,53.740002,53.655849,2020500
2018-02-05,52.990002,54.200001,51.630001,51.779999,51.698914,2898200
2018-02-06,50.860001,53.650002,50.349998,53.369999,53.286427,2631200
2018-02-07,53.419998,54.279999,51.799999,51.849998,51.768806,2445500
2018-02-08,52.029999,52.430000,48.980000,49.009998,48.933250,3654100
2018-02-09,49.549999,49.980000,46.689999,49.060001,48.983177,4088400
2018-02-12,49.880001,52.090000,49.830002,51.380001,51.299545,3396200
2018-02-13,50.750000,51.689999,50.520000,51.209999,51.129807,1760000
2018-02-14,50.389999,53.930000,50.110001,53.700001,53.615910,2864700
2018-02-15,53.869999,53.980000,52.320000,53.770000,53.685799,2475100
2018-02-16,53.500000,54.660000,52.959999,53.330002,53.246490,4512500
2018-02-20,53.570000,55.209999,53.389999,54.730000,54.644295,2704600
2018-02-21,54.840000,55.270000,52.560001,52.570000,52.487679,2857200
2018-02-22,48.540001,51.000000,46.849998,48.439999,48.364143,10827300
2018-02-23,49.459999,50.490002,49.110001,50.250000,50.171310,2937400
2018-02-26,50.709999,50.970001,49.189999,50.320000,50.241203,3816000
2018-02-27,50.279999,50.439999,48.820000,49.060001,48.983177,2413900
2018-02-28,49.369999,49.889999,47.389999,47.509998,47.435600,2845000
2018-03-01,47.759998,49.630001,47.619999,48.580002,48.503929,2570500
2018-03-02,48.000000,49.590000,47.459999,49.500000,49.422485,2479100
2018-03-05,49.139999,51.680000,49.139999,51.330002,51.249622,2859400
2018-03-06,52.279999,52.360001,51.299999,51.570000,51.489246,2085300
2018-03-07,50.810001,52.049999,50.619999,51.070000,50.990028,1930700
2018-03-08,51.270000,51.540001,50.740002,51.220001,51.139793,1165900
2018-03-09,52.250000,52.490002,51.259998,51.849998,51.768806,1568400
2018-03-12,51.650002,52.630001,51.580002,52.389999,52.307961,1522000
2018-03-13,52.610001,52.840000,51.590000,51.799999,51.718884,1390700
2018-03-14,52.240002,53.419998,52.240002,52.720001,52.637444,2464200
2018-03-15,53.090000,53.770000,52.139999,52.360001,52.278008,1761200
2018-03-16,52.150002,53.520000,51.930000,53.070000,52.986897,1523400
2018-03-19,52.840000,53.029999,51.830002,52.130001,52.048370,1584500
2018-03-20,52.320000,54.160000,52.270000,53.880001,53.795628,2017200
2018-03-21,54.400002,58.130001,54.250000,57.709999,57.619629,5166500
2018-03-22,56.820000,57.720001,56.480000,57.130001,57.040539,2219400
2018-03-23,57.470001,59.470001,57.119999,58.000000,57.909176,3548000
2018-03-26,58.689999,59.040001,57.250000,58.900002,58.807770,1884500
2018-03-27,59.560001,59.900002,56.930000,57.259998,57.170334,2948400
2018-03-28,57.259998,58.250000,56.389999,57.310001,57.220257,2896500
2018-03-29,57.689999,59.189999,57.200001,58.950001,58.857689,2103200
2018-04-02,58.610001,58.610001,55.849998,57.700001,57.609646,2375400
2018-04-03,58.279999,59.200001,57.270000,59.020000,58.927578,2129300
2018-04-04,57.730000,58.950001,56.860001,58.830002,58.737877,1605300
2018-04-05,59.180000,61.669998,59.090000,60.730000,60.634899,2722000
2018-04-06,60.150002,60.889999,57.540001,58.919998,58.827732,3467100
2018-04-09,59.619999,60.310001,58.910000,58.939999,58.847702,2430400
2018-04-10,60.150002,62.020000,59.900002,60.990002,60.894497,3221200
2018-04-11,61.000000,62.669998,60.709999,61.849998,61.753147,3731100
2018-04-12,60.770000,61.860001,59.660000,60.990002,60.894497,3066800
2018-04-13,61.689999,62.400002,61.380001,61.860001,61.763130,1714900
2018-04-16,61.529999,62.299999,61.230000,61.799999,61.703224,2203000
2018-04-17,62.310001,62.529999,61.389999,62.119999,62.022724,2817700
2018-04-18,62.830002,64.110001,62.360001,63.410000,63.310703,3158500
2018-04-19,63.240002,64.760002,62.919998,64.040001,63.939720,2761400
2018-04-20,63.759998,64.309998,62.790001,63.830002,63.730049,2463000
2018-04-23,63.470001,65.059998,63.130001,64.949997,64.848289,1826200
2018-04-24,65.139999,66.010002,63.570000,64.339996,64.239243,2660800
2018-04-25,63.980000,65.410004,63.759998,65.370003,65.267639,1322500
2018-04-26,65.610001,65.959999,64.760002,65.839996,65.736893,1314300
2018-04-27,65.449997,65.739998,64.680000,65.169998,65.067947,1773400
2018-04-30,65.110001,66.540001,64.989998,66.059998,65.956551,1453800
2018-05-01,65.699997,65.879997,64.860001,65.720001,65.617088,1893100
2018-05-02,65.680000,66.900002,65.459999,65.910004,65.806793,3287700
2018-05-03,65.000000,65.000000,62.270000,63.980000,63.879810,4817100
2018-05-04,64.260002,64.769997,63.500000,64.400002,64.299156,2231300
2018-05-07,65.279999,66.790001,64.430000,64.660004,64.558754,2646200
2018-05-08,63.849998,66.250000,62.669998,66.220001,66.116302,2264200
2018-05-09,67.629997,68.839996,67.099998,68.059998,67.953423,3685900
2018-05-10,68.449997,68.709999,67.440002,68.180000,68.073235,1657500
2018-05-11,68.300003,68.750000,67.470001,67.629997,67.524094,1393200
2018-05-14,68.019997,68.699997,67.800003,68.040001,67.933456,776300
2018-05-15,67.889999,68.550003,67.029999,68.300003,68.193047,1432700
2018-05-16,68.220001,68.489998,67.330002,68.120003,68.013329,1690200
2018-05-17,68.540001,69.690002,68.290001,68.830002,68.722221,1727100
2018-05-18,68.809998,68.809998,67.150002,67.599998,67.494141,1703500
2018-05-21,68.339996,68.959999,67.849998,68.760002,68.652328,1221800
2018-05-22,68.800003,69.910004,67.099998,67.389999,67.284470,2001600
2018-05-23,66.910004,68.050003,66.000000,67.680000,67.574020,1663300
2018-05-24,66.440002,67.459999,65.809998,67.040001,66.935020,1633600
2018-05-25,64.889999,64.889999,63.169998,64.730003,64.628639,2351100
2018-05-29,63.970001,65.550003,63.810001,65.400002,65.297592,1988600
2018-05-30,66.010002,68.519997,66.000000,67.930000,67.823624,1997900
2018-05-31,67.040001,68.919998,66.879997,67.339996,67.234543,2367700
2018-06-01,68.120003,69.470001,67.050003,68.169998,68.063248,2607600
2018-06-04,68.269997,69.050003,64.279999,64.610001,64.508827,2789100
2018-06-05,64.300003,64.980003,63.470001,64.209999,64.109451,2923300
2018-06-06,64.459999,64.760002,63.360001,63.770000,63.670139,2193200
2018-06-07,64.129997,66.190002,64.099998,65.779999,65.676994,2522500
2018-06-08,65.830002,65.970001,64.800003,65.839996,65.736893,1402600
2018-06-11,66.000000,66.169998,65.120003,65.779999,65.676994,1248700
2018-06-12,65.709999,66.500000,64.750000,65.099998,64.998055,1551100
2018-06-13,64.860001,65.760002,64.540001,65.029999,64.928169,1551300
2018-06-14,65.620003,65.900002,64.029999,64.260002,64.159378,1426700
2018-06-15,63.900002,64.000000,60.509998,60.790001,60.694809,2683300
2018-06-18,60.790001,62.950001,60.759998,62.099998,62.002754,1613200
2018-06-19,60.720001,63.270000,60.360001,62.230000,62.132553,2122400
2018-06-20,63.020000,64.019997,62.349998,63.779999,63.680122,1397200
2018-06-21,63.410000,64.279999,62.599998,62.849998,62.751579,2376000
2018-06-22,66.349998,67.550003,65.500000,66.199997,66.096329,2640500
2018-06-25,66.389999,66.480003,63.639999,64.019997,63.919746,1943300
2018-06-26,64.419998,65.629997,63.770000,65.209999,65.107887,1745200
2018-06-27,66.339996,68.440002,65.980003,67.180000,67.074799,2138500
2018-06-28,67.129997,67.529999,65.540001,66.070000,65.966537,1531000
2018-06-29,66.010002,67.120003,64.500000,64.760002,64.658592,2587300
2018-07-02,64.070000,64.199997,62.090000,62.580002,62.482006,2207400
2018-07-03,64.139999,64.470001,62.450001,62.849998,62.751579,1263100
2018-07-05,63.340000,63.619999,61.509998,61.900002,61.803070,1114300
2018-07-06,61.500000,63.130001,61.130001,62.750000,62.651737,1024800
2018-07-09,63.310001,64.300003,62.830002,64.080002,63.979656,1195500
2018-07-10,64.839996,65.410004,63.660000,63.980000,63.879810,1213000
2018-07-11,63.310001,63.910000,60.910000,62.029999,61.932865,2164500
2018-07-12,62.160000,62.549999,60.540001,61.930000,61.833023,2380800
2018-07-13,62.279999,63.410000,61.919998,62.419998,62.322254,1750700
2018-07-16,61.500000,61.970001,59.770000,60.950001,60.854557,1796900
2018-07-17,60.430000,61.250000,59.349998,60.720001,60.624916,1572600
2018-07-18,60.160000,62.000000,59.189999,61.900002,61.803070,1958700
2018-07-19,61.689999,62.320000,61.160000,61.750000,61.653305,1215400
2018-07-20,62.299999,62.639999,61.660000,62.439999,62.342220,1445300
2018-07-23,62.889999,62.889999,61.919998,62.200001,62.102600,1183600
2018-07-24,62.840000,64.209999,62.480000,63.840000,63.740032,1990300
2018-07-25,62.270000,62.410000,60.599998,61.110001,61.014305,4340100
2018-07-26,60.840000,62.320000,60.840000,61.880001,61.783100,1990100
2018-07-27,61.520000,61.860001,60.709999,60.869999,60.774681,1394100
2018-07-30,62.020000,64.269997,61.849998,63.430000,63.330673,1881800
2018-07-31,63.349998,63.990002,62.070000,63.869999,63.769981,1307400
2018-08-01,63.209999,63.209999,60.880001,62.750000,62.651737,1573000
2018-08-02,62.090000,63.639999,61.900002,63.619999,63.520374,1191600
2018-08-03,63.500000,64.239998,62.299999,62.700001,62.601818,2047200
2018-08-06,62.980000,63.750000,62.410000,62.750000,62.651737,1933600
2018-08-07,63.740002,63.919998,62.020000,62.209999,62.112583,1417100
2018-08-08,61.709999,63.919998,59.419998,63.310001,63.210861,3568400
2018-08-09,63.110001,64.720001,63.110001,63.869999,63.769981,2073200
2018-08-10,63.830002,65.000000,63.450001,64.779999,64.678558,1335100
2018-08-13,64.599998,65.279999,63.029999,63.299999,63.200874,2049900
2018-08-14,64.339996,64.900002,63.980000,64.699997,64.598679,1625000
2018-08-15,64.139999,64.300003,60.959999,61.400002,61.303852,2093000
2018-08-16,62.060001,62.779999,61.500000,62.389999,62.292301,1279500
2018-08-17,63.009998,63.619999,62.450001,63.000000,62.901344,1886000
2018-08-20,62.820000,63.500000,62.660000,62.849998,62.751579,1542800
2018-08-21,63.480000,64.209999,63.470001,63.689999,63.590263,1229800
2018-08-22,64.510002,65.419998,64.410004,65.089996,64.988068,1303100
2018-08-23,64.599998,65.000000,64.260002,64.839996,64.738464,899900
2018-08-24,65.669998,66.199997,65.379997,65.500000,65.397430,1345000
2018-08-27,65.589996,66.160004,65.449997,66.000000,65.896652,811000
2018-08-28,66.120003,66.440002,65.019997,65.589996,65.487289,1263200
2018-08-29,66.099998,66.800003,65.820000,66.529999,66.425819,1018800
2018-08-30,66.519997,66.809998,65.980003,66.430000,66.325974,746600
2018-08-31,66.040001,66.540001,65.430000,65.949997,65.846725,727500
2018-09-04,66.839996,66.839996,64.470001,64.730003,64.628639,1298700
2018-09-05,64.190002,64.279999,62.099998,63.400002,63.300720,1850100
2018-09-06,63.270000,63.279999,60.560001,60.639999,60.545040,2196900
2018-09-07,59.950001,59.950001,58.930000,59.799999,59.706356,1968200
2018-09-10,60.049999,60.750000,59.770000,60.009998,59.916027,1797000
2018-09-11,59.939999,62.009998,59.939999,61.439999,61.343788,1566000
2018-09-12,62.099998,62.410000,60.410000,60.860001,60.764698,2368000
2018-09-13,60.700001,60.709999,58.880001,59.849998,59.756279,2409500
2018-09-14,59.730000,60.709999,59.669998,60.369999,60.275463,1597400
2018-09-17,60.660000,61.169998,59.880001,60.020000,59.926014,1433500
2018-09-18,60.630001,62.270000,60.630001,62.169998,62.072643,1939900
2018-09-19,61.990002,63.369999,61.990002,62.810001,62.711643,1479000
2018-09-20,63.349998,63.580002,61.650002,61.750000,61.653305,1180500
2018-09-21,61.950001,62.840000,61.599998,62.230000,62.132553,1429300
2018-09-24,63.790001,65.739998,63.610001,65.209999,65.107887,2432300
2018-09-25,65.790001,67.720001,65.349998,67.029999,66.925034,2167600
2018-09-26,66.339996,68.000000,66.080002,66.820000,66.715363,1848200
2018-09-27,67.389999,67.629997,66.599998,66.980003,66.875114,1299200
2018-09-28,66.639999,68.870003,66.580002,68.279999,68.173080,1760100
2018-10-01,68.599998,71.029999,68.250000,70.419998,70.309723,2049300
2018-10-02,70.489998,70.980003,69.790001,70.430000,70.319710,1633200
2018-10-03,70.709999,71.949997,70.000000,71.790001,71.677582,2081300
2018-10-04,71.500000,71.750000,68.830002,69.160004,69.051704,2152400
2018-10-05,69.209999,70.099998,67.169998,67.910004,67.803658,2227500
2018-10-08,67.139999,67.529999,65.220001,65.910004,65.806793,2510800
2018-10-09,65.820000,66.519997,64.389999,65.610001,65.507263,3324100
2018-10-10,65.050003,65.320000,61.360001,61.400002,61.303852,2644300
2018-10-11,60.480000,61.799999,59.049999,59.110001,59.017437,2181300
2018-10-12,60.200001,61.130001,58.740002,60.450001,60.355339,2126300
2018-10-15,61.570000,62.459999,60.430000,61.730000,61.633335,2244300
2018-10-16,61.919998,62.669998,61.349998,62.450001,62.352207,1274800
2018-10-17,62.270000,62.680000,60.279999,60.930000,60.834587,2241400
2018-10-18,59.689999,60.419998,58.490002,59.119999,59.027420,2051200
2018-10-19,59.400002,60.599998,58.709999,59.130001,59.037407,1224700
2018-10-22,58.660000,59.150002,56.820000,57.680000,57.589676,1650500
2018-10-23,55.790001,56.500000,54.669998,55.669998,55.582821,2581600
2018-10-24,56.730000,56.860001,53.220001,53.290001,53.206551,2259300
2018-10-25,54.009998,54.869999,53.130001,54.150002,54.065205,1762200
2018-10-26,53.250000,54.119999,51.950001,53.540001,53.456161,1897200
2018-10-29,53.590000,53.709999,49.580002,50.369999,50.291122,2616400
2018-10-30,48.790001,52.939999,48.560001,52.709999,52.627460,6189900
2018-10-31,53.500000,55.549999,52.599998,52.680000,52.597507,3800000
2018-11-01,52.959999,53.759998,50.689999,52.400002,52.317947,3235400
2018-11-02,52.570000,53.000000,49.689999,49.930000,49.851814,3055600
2018-11-05,50.990002,51.130001,49.910000,50.340000,50.261169,2515800
2018-11-06,50.709999,51.110001,49.410000,50.520000,50.440891,2585000
2018-11-07,51.930000,52.500000,50.750000,52.259998,52.178162,2449800
2018-11-08,52.009998,52.540001,49.970001,50.040001,49.961643,2590100
2018-11-09,48.959999,51.060001,48.240002,50.730000,50.650558,2402900
2018-11-12,51.549999,51.810001,48.349998,48.410000,48.334194,2093800
2018-11-13,48.270000,48.430000,46.099998,46.459999,46.387245,3219900
2018-11-14,47.950001,48.740002,45.770000,46.349998,46.277416,2927900
2018-11-15,46.270000,48.320000,45.730000,48.000000,47.924835,2265700
2018-11-16,48.060001,49.980000,47.669998,48.009998,47.934818,2653100
2018-11-19,47.070000,48.139999,46.459999,47.220001,47.146057,3163500
2018-11-20,45.520000,45.549999,43.759998,44.549999,44.480236,3382300
2018-11-21,44.959999,46.700001,44.500000,46.400002,46.327343,2927200
2018-11-23,44.599998,45.060001,43.529999,44.680000,44.610035,2086500
2018-11-26,45.450001,46.169998,44.790001,45.299999,45.229061,2858300
2018-11-27,45.320000,45.830002,44.040001,44.730000,44.659954,3042300
2018-11-28,44.689999,45.189999,43.560001,45.169998,45.099266,3933300
2018-11-29,45.549999,46.830002,45.450001,46.360001,46.287403,3532100
2018-11-30,45.669998,46.790001,45.000000,45.720001,45.648407,4151000
2018-12-03,47.570000,49.310001,47.130001,49.189999,49.112972,5605900
2018-12-04,49.150002,49.290001,47.310001,47.650002,47.575386,3327800
2018-12-06,45.790001,46.160000,44.470001,46.110001,46.037796,4018900
2018-12-07,49.110001,49.189999,47.070000,47.230000,47.156040,3933200
2018-12-10,46.389999,46.990002,44.959999,45.619999,45.548561,2491700
2018-12-11,46.689999,46.900002,45.500000,45.639999,45.568531,2072500
2018-12-12,46.470001,47.990002,46.470001,46.860001,46.786621,2552000
2018-12-13,46.610001,47.330002,45.959999,46.910000,46.836540,2134100
2018-12-14,46.180000,46.520000,45.340000,45.770000,45.698326,1972200
2018-12-17,45.549999,46.180000,44.459999,44.740002,44.669941,1907200
2018-12-18,44.910000,44.910000,41.020000,41.330002,41.265282,4953700
2018-12-19,41.669998,42.619999,40.119999,40.889999,40.825970,2941400
2018-12-20,40.270000,41.040001,38.509998,38.860001,38.799149,2856100
2018-12-21,39.049999,39.580002,37.880001,38.380001,38.319901,3466600
2018-12-24,37.950001,38.200001,36.119999,36.200001,36.143314,1331000
2018-12-26,36.619999,39.520000,35.540001,39.520000,39.458115,3541800
2018-12-27,38.639999,40.000000,38.240002,39.990002,39.927380,2204200
2018-12-28,40.230000,40.520000,38.810001,39.790001,39.727692,2356300
2018-12-31,40.250000,40.480000,39.389999,40.189999,40.127064,1648700
2019-01-02,39.049999,42.299999,39.000000,41.959999,41.894291,2741900
2019-01-03,41.950001,43.090000,41.330002,42.270000,42.203808,2370200
2019-01-04,43.220001,45.299999,42.790001,45.160000,45.089283,4226000
2019-01-07,45.410000,46.680000,44.759998,45.779999,45.708309,3163700
2019-01-08,46.389999,47.090000,45.560001,46.900002,46.826561,2086000
2019-01-09,47.480000,48.139999,46.650002,47.200001,47.126087,3024400
2019-01-10,46.590000,47.599998,45.869999,47.070000,46.996292,2209200
2019-01-11,46.490002,46.869999,45.669998,46.410000,46.337326,1847200
2019-01-14,45.730000,46.990002,45.200001,46.349998,46.277416,1789800
2019-01-15,46.520000,47.259998,46.410000,46.849998,46.776634,1583800
2019-01-16,46.480000,47.119999,46.189999,46.950001,46.876480,1742500
2019-01-17,46.549999,47.910000,46.320000,47.500000,47.425617,1866100
2019-01-18,48.049999,48.299999,46.950001,47.590000,47.515476,2972400
2019-01-22,46.700001,47.090000,45.490002,45.619999,45.548561,1969700
2019-01-23,45.930000,46.180000,44.900002,45.310001,45.239048,1731400
2019-01-24,45.169998,46.369999,45.130001,46.340000,46.267433,1788500
2019-01-25,46.570000,48.119999,46.490002,47.259998,47.185993,2759600
2019-01-28,46.400002,47.240002,46.279999,47.070000,46.996292,1802400
2019-01-29,47.669998,48.150002,45.500000,45.610001,45.538578,4478700
2019-01-30,46.099998,47.279999,45.439999,47.209999,47.136070,2143300
2019-01-31,47.380001,47.430000,45.660000,46.169998,46.097698,1990800
2019-02-01,46.340000,46.680000,45.779999,46.160000,46.087715,1674200
2019-02-04,45.680000,47.330002,45.320000,47.139999,47.066181,2033900
2019-02-05,46.959999,47.740002,46.650002,46.860001,46.786621,2143100
2019-02-06,46.410000,47.400002,46.099998,46.590000,46.517044,1758400
2019-02-07,46.020000,46.389999,44.060001,44.470001,44.400364,2081300
2019-02-08,44.480000,44.889999,43.360001,44.130001,44.060898,2272600
2019-02-11,43.669998,44.580002,43.450001,44.230000,44.160740,2457800
2019-02-12,45.310001,45.639999,44.590000,44.799999,44.729847,1839200
2019-02-13,45.049999,46.430000,45.000000,46.139999,46.067749,2111400
2019-02-14,47.080002,47.150002,45.080002,45.160000,45.089283,4713300
2019-02-15,45.810001,46.980000,45.810001,46.930000,46.856510,2658700
2019-02-19,42.299999,45.900002,42.250000,44.410000,44.340458,8788300
2019-02-20,44.639999,45.310001,44.139999,45.000000,44.929535,2891100
2019-02-21,44.880001,45.119999,43.779999,44.040001,43.971039,3132900
2019-02-22,44.500000,44.939999,43.320000,44.779999,44.709877,3428000
2019-02-25,44.720001,45.169998,43.779999,44.000000,43.931099,2761800
2019-02-26,44.230000,44.799999,43.770000,43.840000,43.771351,2298600
2019-02-27,44.150002,45.529999,43.580002,45.200001,45.129219,3328900
2019-02-28,45.330002,45.480000,44.509998,44.610001,44.540146,2329900
2019-03-01,44.849998,45.730000,44.419998,45.230000,45.159172,2287000
2019-03-04,45.480000,45.860001,44.400002,45.240002,45.169159,2515600
2019-03-05,45.330002,45.419998,43.340000,43.830002,43.761368,4581000
2019-03-06,43.570000,43.779999,42.599998,42.610001,42.543278,1998100
2019-03-07,42.740002,42.840000,41.349998,41.630001,41.564812,2538300
2019-03-08,40.590000,40.610001,39.439999,39.900002,39.837521,2197900
2019-03-11,40.270000,40.480000,39.650002,39.939999,39.877457,2351600
2019-03-12,40.400002,41.000000,40.250000,40.919998,40.855919,1762300
2019-03-13,41.599998,42.410000,41.240002,42.320000,42.253731,1970800
2019-03-14,42.250000,42.939999,42.110001,42.250000,42.183838,1221700
2019-03-15,42.000000,42.380001,41.680000,42.040001,41.974171,2080000
2019-03-18,42.310001,42.849998,41.900002,42.459999,42.393509,1527400
2019-03-19,42.970001,42.970001,41.619999,41.820000,41.754513,1657500
2019-03-20,41.549999,44.360001,41.529999,43.930000,43.861210,2319300
2019-03-21,43.919998,44.459999,43.450001,44.230000,44.160740,1505300
2019-03-22,43.650002,43.730000,42.279999,42.380001,42.313637,2790800
2019-03-25,42.139999,43.040001,41.759998,42.820000,42.752945,2268100
2019-03-26,43.580002,44.279999,43.119999,43.169998,43.102398,1898200
2019-03-27,44.000000,44.389999,43.290001,43.740002,43.671509,3318100
2019-03-28,43.220001,44.910000,43.220001,44.790001,44.719864,2435400
2019-03-29,45.470001,45.630001,44.680000,44.770000,44.699894,1854300
2019-04-01,45.580002,46.799999,45.220001,46.650002,46.576950,2985200
2019-04-02,46.709999,47.169998,46.009998,46.090000,46.017826,2202200
2019-04-03,46.279999,46.669998,44.759998,44.959999,44.889595,2061000
2019-04-04,44.959999,45.610001,44.360001,45.230000,45.159172,2155500
2019-04-05,45.389999,47.279999,45.389999,47.220001,47.146057,3005700
2019-04-08,47.459999,47.630001,46.630001,47.000000,46.926399,3395500
2019-04-09,46.779999,47.380001,46.320000,46.570000,46.497074,2109400
2019-04-10,46.790001,47.230000,46.169998,46.880001,46.806591,1923500
2019-04-11,46.500000,47.450001,46.250000,46.970001,46.896450,1209800
2019-04-12,48.849998,49.150002,47.680000,49.080002,49.003147,3350900
2019-04-15,48.959999,49.660000,48.369999,48.880001,48.803459,1717900
2019-04-16,49.049999,49.110001,48.189999,48.889999,48.813442,2039100
2019-04-17,49.340000,49.650002,48.619999,49.380001,49.302677,2137900
2019-04-18,49.770000,50.180000,49.299999,49.849998,49.771938,1389700
2019-04-22,50.820000,51.880001,50.369999,51.820000,51.738853,1879500
2019-04-23,51.810001,52.040001,51.150002,51.400002,51.319511,1897600
2019-04-24,51.549999,51.910000,49.599998,50.000000,49.921703,2301700
2019-04-25,50.139999,50.360001,48.840000,48.900002,48.823429,1955400
2019-04-26,48.349998,48.570000,47.139999,47.790001,47.715164,2101200
2019-04-29,48.049999,48.299999,47.509998,48.049999,47.974754,1588900
2019-04-30,49.660000,49.709999,45.500000,45.990002,45.917984,5653900
2019-05-01,45.770000,46.160000,44.029999,44.099998,44.030941,3167000
2019-05-02,43.230000,43.930000,42.189999,42.380001,42.313637,2867700
2019-05-03,43.110001,43.730000,42.590000,42.990002,42.922684,2667500
2019-05-06,42.130001,42.730000,41.520000,42.509998,42.443432,2179600
2019-05-07,41.830002,42.049999,40.980000,41.740002,41.674641,2577600
2019-05-08,41.630001,43.220001,41.619999,42.500000,42.433449,2133500
2019-05-09,42.130001,42.209999,41.160000,42.029999,41.964184,2191900
2019-05-10,41.900002,42.250000,41.090000,41.919998,41.854355,2098800
2019-05-13,41.380001,42.049999,40.700001,41.110001,41.045624,1964400
2019-05-14,41.439999,42.470001,41.259998,42.000000,41.934231,1436500
2019-05-15,41.500000,42.020000,41.139999,42.020000,41.954201,1724000
2019-05-16,42.320000,42.919998,42.150002,42.439999,42.373539,1641800
2019-05-17,42.189999,42.200001,41.270000,41.459999,41.395077,1708300
2019-05-20,41.279999,41.930000,41.119999,41.650002,41.584782,1674400
2019-05-21,42.310001,43.770000,41.990002,43.160000,43.092415,2292200
2019-05-22,42.660000,42.959999,41.810001,42.049999,41.984150,1985700
2019-05-23,41.060001,41.060001,38.450001,38.619999,38.559521,3034500
2019-05-24,39.180000,39.599998,38.099998,38.470001,38.409760,1483600
2019-05-28,38.500000,38.709999,37.840000,37.919998,37.860619,1783500
2019-05-29,37.270000,37.730000,36.630001,37.689999,37.630978,2290300
2019-05-30,37.599998,37.680000,35.810001,36.080002,36.023502,2603100
2019-05-31,35.230000,35.700001,34.720001,35.000000,34.945190,2847700
2019-06-03,35.320000,35.540001,34.610001,35.009998,34.955173,3028500
2019-06-04,37.009998,40.400002,36.639999,40.230000,40.167004,7563200
2019-06-05,40.349998,40.430000,38.230000,38.490002,38.429729,4747300
2019-06-06,38.750000,39.320000,38.220001,38.849998,38.789162,2760700
2019-06-07,38.919998,39.570000,38.470001,38.919998,38.859051,2339500
2019-06-10,39.250000,40.020000,38.730000,38.810001,38.749226,1587300
2019-06-11,39.500000,39.560001,38.389999,38.400002,38.339870,2096300
2019-06-12,37.490002,37.770000,36.580002,36.680000,36.622562,2723400
2019-06-13,37.279999,37.680000,37.169998,37.500000,37.441277,2440800
2019-06-14,37.430000,37.720001,36.650002,36.720001,36.662498,2005400
2019-06-17,36.369999,37.810001,36.279999,37.750000,37.690887,2979700
2019-06-18,38.049999,40.240002,38.049999,39.590000,39.528004,3376700
2019-06-19,39.599998,39.900002,38.779999,39.259998,39.198521,2130000
2019-06-20,40.439999,41.360001,40.250000,41.240002,41.175423,2236200
2019-06-21,41.439999,41.730000,40.680000,40.889999,40.825970,1650700
2019-06-24,40.790001,41.299999,39.740002,39.860001,39.797581,1938900
2019-06-25,39.650002,40.320000,39.290001,39.720001,39.657803,1971000
2019-06-26,40.500000,42.750000,40.480000,42.369999,42.303650,3000800
2019-06-27,42.380001,42.820000,41.910000,42.259998,42.193821,1348200
2019-06-28,42.369999,42.689999,41.470001,42.090000,42.024090,2628300
2019-07-01,43.290001,43.570000,42.090000,42.430000,42.363556,2103600
2019-07-02,42.200001,42.459999,40.650002,41.080002,41.015675,3410500
2019-07-03,41.209999,41.209999,40.520000,40.790001,40.726128,819500
2019-07-05,40.599998,41.270000,40.599998,41.049999,40.985718,1096500
2019-07-08,40.730000,41.900002,40.560001,40.990002,40.925816,1182000
2019-07-09,40.669998,41.340000,40.180000,41.209999,41.145466,1555100
2019-07-10,41.770000,42.570000,41.570000,42.320000,42.253731,1251200
2019-07-11,42.200001,42.430000,40.660000,40.990002,40.925816,2032300
2019-07-12,40.930000,41.470001,40.490002,40.990002,40.925816,2029100
2019-07-15,41.060001,41.110001,38.459999,38.669998,38.609444,2761100
2019-07-16,38.509998,39.049999,37.180000,37.529999,37.471230,2361700
2019-07-17,37.240002,37.439999,36.180000,36.200001,36.143314,1920100
2019-07-18,35.919998,36.790001,35.810001,36.459999,36.402905,1624500
2019-07-19,36.459999,36.650002,35.900002,36.259998,36.203217,1989300
2019-07-22,36.380001,37.139999,35.830002,36.250000,36.193233,1710700
2019-07-23,36.310001,36.849998,35.770000,36.830002,36.772327,1962500
2019-07-24,36.650002,37.740002,36.619999,36.770000,36.712421,1891300
2019-07-25,37.090000,37.340000,35.720001,35.930000,35.873737,1930500
2019-07-26,35.880001,36.099998,35.290001,35.419998,35.364532,1086300
2019-07-29,35.200001,35.509998,34.610001,35.080002,35.025070,2847900
2019-07-30,35.020000,37.330002,34.919998,37.049999,36.991982,2623800
2019-07-31,37.279999,38.549999,36.830002,37.169998,37.111794,2718300
2019-08-01,36.400002,36.560001,33.680000,34.270000,34.216335,5807000
2019-08-02,34.490002,34.849998,33.040001,33.630001,33.577339,2182400
2019-08-05,32.570000,32.570000,31.400000,31.540001,31.490612,4123400
2019-08-06,32.500000,32.570000,30.320000,31.459999,31.410734,4998500
2019-08-07,30.459999,31.500000,29.870001,30.700001,30.651926,4524400
2019-08-08,31.100000,31.780001,30.719999,31.730000,31.680313,2495600
2019-08-09,32.040001,32.369999,31.280001,31.320000,31.270954,1557800
2019-08-12,30.980000,31.139999,29.850000,30.059999,30.012928,2898300
2019-08-13,29.770000,31.480000,29.360001,30.860001,30.811676,3198500
2019-08-14,29.620001,29.870001,28.580000,28.940001,28.894682,2834600
2019-08-15,28.780001,29.180000,28.490000,28.860001,28.814808,2017500
2019-08-16,28.820000,29.969999,28.820000,29.770000,29.723383,1953100
2019-08-19,30.450001,31.309999,28.490000,31.190001,31.141159,2151400
2019-08-20,30.760000,31.040001,30.260000,30.590000,30.542099,1385700
2019-08-21,31.080000,31.580000,30.370001,30.709999,30.661909,1755300
2019-08-22,30.740000,31.150000,30.040001,30.080000,30.032896,1458600
2019-08-23,29.549999,29.740000,28.670000,28.760000,28.714964,2469600
2019-08-26,29.240000,29.420000,28.100000,28.309999,28.265667,2199100
2019-08-27,28.629999,29.040001,28.040001,28.549999,28.505291,1662600
2019-08-28,28.790001,30.049999,28.690001,29.680000,29.633524,2347500
2019-08-29,30.020000,30.639999,29.730000,30.070000,30.022913,1909100
2019-08-30,30.070000,30.090000,28.830000,29.200001,29.154276,2367800
2019-09-03,28.490000,28.740000,27.540001,28.080000,28.036028,4161100
2019-09-04,28.830000,29.450001,28.559999,29.309999,29.264101,3093900
2019-09-05,29.770000,30.850000,29.660000,30.170000,30.122755,3575900
2019-09-06,29.650000,30.420000,29.059999,30.309999,30.262535,3176300
2019-09-09,30.860001,32.029999,30.730000,32.020000,31.969860,3261400
2019-09-10,32.150002,33.700001,31.930000,32.549999,32.499027,3908900
2019-09-11,32.900002,33.860001,32.189999,33.130001,33.078121,2760300
2019-09-12,32.139999,33.020000,31.540001,31.950001,31.899969,1967800
2019-09-13,32.439999,33.029999,31.770000,32.139999,32.089672,1730900
2019-09-16,35.580002,40.250000,35.009998,39.160000,39.098679,11619800
2019-09-17,38.730000,38.799999,33.060001,34.689999,34.635677,11577800
2019-09-18,33.959999,35.070000,33.580002,34.270000,34.216335,2744700
2019-09-19,34.910000,34.950001,33.450001,33.639999,33.587322,2219900
2019-09-20,33.599998,34.220001,32.750000,34.119999,34.066570,3264700
2019-09-23,33.509998,34.320000,33.419998,34.049999,33.996677,2299100
2019-09-24,33.580002,33.939999,31.650000,31.809999,31.760187,3559300
2019-09-25,31.280001,31.980000,30.879999,31.879999,31.830078,3068800
2019-09-26,31.530001,31.650000,30.629999,30.900000,30.851612,2572000
2019-09-27,30.250000,31.030001,29.940001,30.580000,30.532114,1713600
2019-09-30,30.299999,30.950001,30.250000,30.790001,30.741785,1849800
2019-10-01,31.129999,31.570000,29.910000,30.000000,29.953022,1256300
2019-10-02,29.889999,30.320000,28.850000,29.280001,29.234150,4779800
2019-10-03,28.920000,29.750000,28.410000,29.730000,29.683445,5776600
2019-10-04,29.549999,30.170000,28.430000,28.850000,28.804823,6001500
2019-10-07,29.080000,29.209999,28.080000,28.549999,28.505291,9034500
2019-10-08,28.059999,28.290001,27.260000,27.299999,27.257250,6324100
2019-10-09,27.750000,28.580000,27.580000,27.980000,27.936184,4992500
2019-10-10,27.780001,28.260000,27.389999,27.760000,27.716530,3229300
2019-10-11,28.280001,28.940001,28.209999,28.459999,28.415432,3031500
2019-10-14,27.860001,28.670000,27.530001,28.219999,28.175808,2542300
2019-10-15,28.090000,28.700001,27.639999,28.250000,28.205763,2187000
2019-10-16,28.190001,28.860001,27.950001,27.950001,27.906233,1746200
2019-10-17,28.030001,28.459999,27.620001,28.290001,28.245701,2234800
2019-10-18,28.379999,28.830000,27.530001,27.559999,27.516842,2199300
2019-10-21,27.580000,28.260000,27.540001,28.030001,27.986107,1927700
2019-10-22,28.080000,29.120001,27.900000,28.709999,28.665041,2655200
2019-10-23,28.510000,29.969999,28.309999,29.500000,29.453804,2026100
2019-10-24,29.650000,29.709999,28.410000,28.959999,28.914650,2297800
2019-10-25,28.879999,29.500000,28.559999,29.260000,29.214182,1924100
2019-10-28,29.540001,29.790001,28.639999,28.750000,28.704979,1815200
2019-10-29,28.480000,29.740000,28.129999,29.350000,29.304041,2173900
2019-10-30,29.459999,29.650000,28.370001,28.570000,28.525261,3709500
2019-10-31,29.370001,29.570000,27.520000,29.469999,29.423851,3555000
2019-11-01,29.760000,30.100000,29.190001,30.100000,30.052866,3736600
2019-11-04,30.959999,31.820000,30.910000,31.450001,31.400753,3290400
2019-11-05,31.840000,32.689999,31.680000,31.930000,31.879999,2836300
2019-11-06,31.590000,32.480000,30.900000,31.309999,31.309999,2842400
