Date,Open,High,Low,Close,Adj Close,Volume
2017-11-06,48.130001,48.654999,47.549999,47.660000,47.660000,2195600
2017-11-07,47.599998,48.055000,47.115002,47.404999,47.404999,1218000
2017-11-08,47.360001,47.369999,46.090000,46.575001,46.575001,2487600
2017-11-09,46.389999,46.674999,45.785000,46.639999,46.639999,2118200
2017-11-10,46.685001,46.939999,46.165001,46.840000,46.840000,1307000
2017-11-13,46.555000,47.494999,46.555000,47.180000,47.180000,3056200
2017-11-14,46.974998,47.180000,46.375000,46.514999,46.514999,1715400
2017-11-15,46.400002,46.509998,45.035000,46.075001,46.075001,2552800
2017-11-16,46.255001,48.465000,46.255001,47.970001,47.970001,3466600
2017-11-17,47.834999,47.974998,47.520000,47.570000,47.570000,2009200
2017-11-20,47.615002,47.820000,46.695000,46.889999,46.889999,2466600
2017-11-21,47.195000,47.419998,46.575001,46.959999,46.959999,2384200
2017-11-22,47.200001,49.330002,47.165001,48.474998,48.474998,2761600
2017-11-24,48.535000,48.945000,48.264999,48.584999,48.584999,818000
2017-11-27,48.345001,49.450001,48.325001,49.044998,49.044998,2990400
2017-11-28,49.040001,49.590000,48.220001,48.904999,48.904999,2577400
2017-11-29,48.799999,49.990002,48.759998,49.505001,49.505001,2188800
2017-11-30,49.665001,51.220001,49.665001,51.044998,51.044998,3098400
2017-12-01,51.195000,51.494999,48.724998,50.549999,50.549999,2710000
2017-12-04,51.345001,51.575001,49.095001,49.139999,49.139999,3026600
2017-12-05,49.209999,50.285000,48.715000,49.865002,49.865002,5166400
2017-12-06,49.935001,49.955002,48.805000,49.255001,49.255001,2125200
2017-12-07,49.384998,50.654999,49.244999,50.450001,50.450001,2583000
2017-12-08,50.555000,51.150002,50.375000,50.669998,50.669998,2316600
2017-12-11,50.584999,50.959999,49.529999,49.849998,49.849998,2256200
2017-12-12,50.084999,50.439999,49.715000,50.430000,50.430000,2722400
2017-12-13,50.430000,51.189999,50.395000,50.595001,50.595001,3979600
2017-12-14,50.884998,50.955002,49.400002,49.509998,49.509998,2653000
2017-12-15,50.014999,50.084999,47.345001,47.430000,47.430000,9075400
2017-12-18,47.680000,49.810001,47.669998,48.965000,48.965000,6441200
2017-12-19,49.264999,50.625000,49.105000,50.470001,50.470001,4620400
2017-12-20,50.845001,52.325001,50.630001,51.474998,51.474998,3335200
2017-12-21,51.810001,51.994999,50.764999,51.294998,51.294998,3226200
2017-12-22,51.334999,51.334999,50.630001,51.080002,51.080002,1533400
2017-12-26,51.145000,51.639999,50.945000,51.130001,51.130001,1023400
2017-12-27,51.320000,51.980000,51.169998,51.509998,51.509998,1434800
2017-12-28,51.235001,51.709999,50.904999,51.450001,51.450001,1258200
2017-12-29,51.750000,51.924999,50.419998,50.439999,50.439999,1615000
2018-01-02,50.349998,51.340000,49.535000,51.294998,51.294998,2240400
2018-01-03,51.724998,52.259998,51.285000,52.215000,52.215000,2298000
2018-01-04,52.500000,52.500000,51.095001,51.250000,51.250000,2075200
2018-01-05,51.549999,53.009998,51.330002,52.744999,52.744999,2875000
2018-01-08,52.700001,52.790001,51.790001,52.459999,52.459999,2705400
2018-01-09,52.705002,53.369999,52.520000,52.985001,52.985001,2170400
2018-01-10,52.810001,53.029999,51.700001,52.900002,52.900002,1841600
2018-01-11,53.044998,53.400002,52.840000,53.389999,53.389999,1248400
2018-01-12,53.889999,54.849998,53.500000,54.740002,54.740002,1515800
2018-01-16,55.250000,55.810001,54.320000,54.650002,54.650002,2381000
2018-01-17,55.165001,55.860001,54.450001,55.674999,55.674999,2433400
2018-01-18,55.590000,55.880001,54.869999,55.500000,55.500000,2159600
2018-01-19,55.974998,55.974998,54.529999,55.334999,55.334999,2473600
2018-01-22,55.830002,55.895000,54.904999,55.794998,55.794998,2289200
2018-01-23,55.584999,56.165001,55.060001,55.485001,55.485001,1709000
2018-01-24,55.669998,56.105000,55.455002,55.509998,55.509998,1433000
2018-01-25,55.680000,55.680000,54.895000,55.330002,55.330002,1569600
2018-01-26,55.455002,55.529999,55.134998,55.400002,55.400002,2223000
2018-01-29,55.590000,56.209999,55.435001,55.634998,55.634998,1644200
2018-01-30,54.514999,54.910000,53.855000,54.345001,54.345001,3909000
2018-01-31,55.459999,56.064999,53.305000,53.619999,53.619999,3258000
2018-02-01,53.494999,53.654999,52.275002,53.365002,53.365002,3883600
2018-02-02,53.000000,53.360001,51.755001,51.875000,51.875000,2404400
2018-02-05,51.645000,52.009998,49.595001,49.689999,49.689999,3865800
2018-02-06,49.895000,53.305000,49.895000,51.834999,51.834999,5625000
2018-02-07,51.505001,53.544998,51.505001,52.189999,52.189999,6210400
2018-02-08,52.020000,52.474998,50.044998,50.180000,50.180000,6288000
2018-02-09,50.590000,51.325001,48.950001,50.830002,50.830002,5408000
2018-02-12,51.285000,51.965000,50.549999,51.544998,51.544998,2664200
2018-02-13,51.090000,51.555000,50.404999,51.500000,51.500000,2853000
2018-02-14,51.005001,51.910000,50.584999,51.064999,51.064999,2673200
2018-02-15,51.230000,51.455002,48.805000,49.880001,49.880001,5042000
2018-02-16,49.860001,50.490002,49.419998,50.110001,50.110001,2530400
2018-02-20,49.935001,51.169998,49.730000,50.130001,50.130001,2520200
2018-02-21,50.230000,51.130001,50.060001,50.099998,50.099998,2192600
2018-02-22,50.294998,50.480000,49.540001,49.744999,49.744999,2300000
2018-02-23,50.119999,50.294998,49.455002,50.224998,50.224998,1949000
2018-02-26,50.310001,51.590000,49.889999,51.340000,51.340000,2203600
2018-02-27,51.275002,52.075001,51.139999,51.185001,51.185001,1541600
2018-02-28,51.290001,51.544998,50.685001,50.709999,50.709999,2105400
2018-03-01,50.689999,50.855000,49.619999,49.904999,49.904999,2249800
2018-03-02,49.720001,50.520000,49.255001,50.389999,50.389999,1875600
2018-03-05,50.244999,51.250000,49.735001,50.959999,50.959999,2136200
2018-03-06,51.075001,51.230000,50.095001,50.514999,50.514999,1999400
2018-03-07,50.070000,50.939999,49.935001,50.855000,50.855000,1824200
2018-03-08,50.945000,50.945000,49.744999,50.139999,50.139999,2118000
2018-03-09,50.535000,51.340000,50.250000,51.330002,51.330002,2033600
2018-03-12,51.165001,51.224998,50.134998,50.150002,50.150002,2026000
2018-03-13,50.384998,51.009998,50.195000,50.834999,50.834999,2255200
2018-03-14,51.110001,52.384998,51.105000,51.779999,51.779999,5080200
2018-03-15,51.924999,53.334999,51.830002,52.619999,52.619999,3256000
2018-03-16,52.700001,53.415001,52.685001,52.805000,52.805000,4059000
2018-03-19,52.514999,52.730000,51.834999,52.205002,52.205002,2923000
2018-03-20,52.215000,52.250000,51.189999,51.825001,51.825001,2869400
2018-03-21,51.950001,52.520000,51.724998,52.345001,52.345001,3329400
2018-03-22,51.939999,52.730000,51.830002,51.919998,51.919998,4339400
2018-03-23,51.939999,52.500000,50.634998,50.735001,50.735001,4044600
2018-03-26,51.455002,51.740002,50.369999,50.849998,50.849998,3051600
2018-03-27,51.119999,51.509998,50.299999,50.570000,50.570000,2041600
2018-03-28,50.435001,51.105000,50.000000,50.174999,50.174999,2549600
2018-03-29,50.630001,53.529999,50.474998,53.435001,53.435001,4210200
2018-04-02,53.735001,54.055000,52.154999,53.125000,53.125000,5745600
2018-04-03,53.160000,53.509998,52.250000,53.105000,53.105000,3376400
2018-04-04,52.889999,53.310001,52.139999,53.205002,53.205002,2922200
2018-04-05,53.520000,54.564999,53.220001,54.474998,54.474998,3145600
2018-04-06,54.189999,54.404999,53.005001,53.514999,53.514999,2285000
2018-04-09,53.634998,54.189999,53.244999,53.290001,53.290001,1591000
2018-04-10,54.014999,54.525002,53.205002,53.980000,53.980000,2377200
2018-04-11,53.575001,53.865002,52.660000,52.965000,52.965000,2520400
2018-04-12,53.384998,54.060001,52.985001,53.009998,53.009998,1951800
2018-04-13,53.294998,53.575001,52.990002,53.320000,53.320000,1129000
2018-04-16,53.830002,55.369999,53.480000,54.959999,54.959999,4394400
2018-04-17,55.570000,56.400002,55.570000,56.055000,56.055000,3025600
2018-04-18,56.369999,56.939999,55.764999,56.110001,56.110001,2081600
2018-04-19,56.035000,56.215000,55.520000,55.685001,55.685001,2055400
2018-04-20,55.700001,55.980000,55.150002,55.314999,55.314999,2221600
2018-04-23,55.384998,55.455002,54.895000,55.285000,55.285000,2342800
2018-04-24,53.794998,55.490002,53.474998,53.869999,53.869999,4338600
2018-04-25,53.939999,54.985001,53.700001,54.645000,54.645000,4257400
2018-04-26,54.369999,54.689999,53.744999,54.500000,54.500000,3353200
2018-04-27,54.480000,55.525002,54.334999,55.084999,55.084999,1923800
2018-04-30,54.250000,55.900002,54.139999,54.290001,54.290001,4228200
2018-05-01,54.380001,54.630001,53.525002,54.384998,54.384998,3094000
2018-05-02,53.935001,57.939999,53.924999,57.119999,57.119999,30727200
2018-05-03,57.189999,58.035000,56.430000,57.505001,57.505001,7199000
2018-05-04,57.459999,58.435001,57.395000,58.325001,58.325001,8443400
2018-05-07,58.549999,58.930000,57.445000,57.744999,57.744999,4042000
2018-05-08,57.904999,57.904999,56.345001,56.705002,56.705002,3629400
2018-05-09,56.700001,57.000000,55.680000,56.415001,56.415001,3207400
2018-05-10,56.520000,57.220001,56.325001,56.529999,56.529999,2876400
2018-05-11,56.720001,57.435001,56.154999,57.220001,57.220001,3329800
2018-05-14,57.250000,57.884998,57.080002,57.365002,57.365002,1810800
2018-05-15,57.014999,57.139999,56.320000,56.549999,56.549999,2446000
2018-05-16,56.674999,56.770000,56.125000,56.529999,56.529999,2734000
2018-05-17,56.605000,57.549999,56.584999,57.285000,57.285000,2495000
2018-05-18,57.340000,57.904999,57.290001,57.689999,57.689999,2310800
2018-05-21,58.000000,58.340000,57.724998,58.025002,58.025002,2079000
2018-05-22,58.025002,58.470001,57.605000,57.865002,57.865002,1818000
2018-05-23,57.645000,58.709999,57.555000,58.235001,58.235001,3106800
2018-05-24,58.215000,58.480000,57.500000,58.305000,58.305000,2585800
2018-05-25,58.299999,59.470001,58.240002,59.209999,59.209999,2120800
2018-05-29,58.834999,59.040001,57.669998,58.455002,58.455002,2598600
2018-05-30,58.700001,59.435001,58.465000,59.404999,59.404999,2713800
2018-05-31,59.340000,59.419998,58.459999,58.580002,58.580002,4428400
2018-06-01,58.985001,58.985001,58.250000,58.785000,58.785000,3296400
2018-06-04,58.785000,59.174999,58.250000,59.125000,59.125000,2613800
2018-06-05,59.224998,59.314999,58.369999,59.005001,59.005001,2329800
2018-06-06,58.985001,59.485001,58.794998,59.485001,59.485001,2501600
2018-06-07,59.500000,59.919998,59.255001,59.590000,59.590000,1717400
2018-06-08,59.105000,59.904999,58.470001,59.904999,59.904999,2715800
2018-06-11,60.000000,61.334999,59.904999,60.970001,60.970001,2617200
2018-06-12,60.965000,61.889999,60.619999,61.855000,61.855000,3093400
2018-06-13,62.064999,63.020000,61.955002,62.334999,62.334999,4382400
2018-06-14,62.560001,62.924999,61.410000,61.750000,61.750000,4442600
2018-06-15,61.924999,62.090000,61.014999,61.884998,61.884998,6119600
2018-06-18,61.740002,62.520000,61.294998,62.520000,62.520000,3488800
2018-06-19,62.075001,62.325001,61.549999,62.134998,62.134998,2684400
2018-06-20,62.230000,62.994999,62.230000,62.875000,62.875000,1975400
2018-06-21,62.805000,63.150002,61.955002,62.305000,62.305000,2561800
2018-06-22,62.645000,62.950001,62.334999,62.799999,62.799999,6845200
2018-06-25,62.785000,62.970001,61.560001,61.915001,61.915001,2511200
2018-06-26,61.950001,62.165001,61.535000,61.674999,61.674999,2955400
2018-06-27,61.814999,61.845001,61.049999,61.055000,61.055000,2831200
2018-06-28,60.570000,61.974998,60.125000,61.889999,61.889999,2617200
2018-06-29,61.980000,62.959999,61.529999,61.605000,61.605000,3454800
2018-07-02,61.404999,62.064999,60.505001,62.029999,62.029999,2087600
2018-07-03,62.189999,62.799999,61.955002,62.590000,62.590000,986600
2018-07-05,62.915001,64.010002,62.884998,63.994999,63.994999,2852800
2018-07-06,64.004997,64.610001,63.875000,64.580002,64.580002,2837000
2018-07-09,64.889999,64.949997,64.264999,64.650002,64.650002,2837400
2018-07-10,65.000000,65.584999,64.800003,65.305000,65.305000,2394800
2018-07-11,65.000000,66.029999,64.214996,65.724998,65.724998,2237600
2018-07-12,66.074997,66.434998,65.650002,66.339996,66.339996,2818600
2018-07-13,66.349998,67.349998,66.339996,67.264999,67.264999,2811800
2018-07-16,67.169998,67.320000,66.580002,66.614998,66.614998,2932600
2018-07-17,66.175003,67.000000,65.400002,66.955002,66.955002,2763400
2018-07-18,66.820000,67.349998,66.584999,67.010002,67.010002,1711800
2018-07-19,67.250000,67.910004,66.860001,67.625000,67.625000,1890400
2018-07-20,67.355003,68.055000,67.305000,67.724998,67.724998,1790000
2018-07-23,67.699997,68.144997,67.404999,68.059998,68.059998,3314200
2018-07-24,66.500000,66.949997,64.544998,65.000000,65.000000,7178600
2018-07-25,65.320000,66.434998,64.945000,65.940002,65.940002,4179200
2018-07-26,65.949997,66.675003,65.275002,66.514999,66.514999,2368800
2018-07-27,66.599998,66.745003,65.769997,66.040001,66.040001,1467200
2018-07-30,65.945000,66.000000,64.525002,64.699997,64.699997,2202600
2018-07-31,64.750000,65.474998,64.580002,65.165001,65.165001,1895400
2018-08-01,65.629997,66.669998,65.375000,66.400002,66.400002,2972400
2018-08-02,66.400002,67.614998,65.900002,67.550003,67.550003,2299600
2018-08-03,66.400002,67.635002,66.400002,67.415001,67.415001,2017000
2018-08-06,66.945000,67.879997,66.830002,67.595001,67.595001,4231400
2018-08-07,67.610001,68.019997,66.885002,67.839996,67.839996,3475400
2018-08-08,67.940002,68.949997,67.885002,68.730003,68.730003,1661800
2018-08-09,68.885002,69.885002,68.714996,69.235001,69.235001,1957800
2018-08-10,68.870003,69.964996,68.750000,69.245003,69.245003,1937000
2018-08-13,69.254997,69.964996,69.129997,69.754997,69.754997,2608600
2018-08-14,69.930000,71.894997,69.870003,71.839996,71.839996,4165000
2018-08-15,71.500000,72.114998,71.349998,71.849998,71.849998,3214000
2018-08-16,72.190002,72.690002,71.824997,71.959999,71.959999,2465000
2018-08-17,72.089996,72.355003,70.959999,71.855003,71.855003,2250200
2018-08-20,71.705002,71.779999,71.000000,71.540001,71.540001,2422600
2018-08-21,71.699997,72.139999,71.205002,71.900002,71.900002,2489800
2018-08-22,71.964996,72.139999,71.480003,72.029999,72.029999,1916000
2018-08-23,72.165001,72.529999,71.974998,72.175003,72.175003,1525000
2018-08-24,72.320000,72.675003,71.945000,72.620003,72.620003,1671000
2018-08-27,72.980003,73.114998,72.555000,72.764999,72.764999,1309200
2018-08-28,72.889999,73.214996,72.500000,73.190002,73.190002,1760600
2018-08-29,73.400002,73.794998,72.904999,73.440002,73.440002,2165600
2018-08-30,73.440002,73.964996,73.190002,73.345001,73.345001,1345600
2018-08-31,73.000000,73.404999,72.714996,73.239998,73.239998,2655800
2018-09-04,73.199997,73.779999,73.004997,73.105003,73.105003,2980000
2018-09-05,73.275002,73.309998,72.160004,72.614998,72.614998,2082200
2018-09-06,72.760002,73.019997,71.945000,72.654999,72.654999,2368600
2018-09-07,72.650002,74.120003,72.500000,73.025002,73.025002,1908200
2018-09-10,72.815002,73.154999,71.264999,71.714996,71.714996,2187600
2018-09-11,71.500000,72.574997,71.250000,72.144997,72.144997,2029800
2018-09-12,72.000000,72.239998,71.324997,72.139999,72.139999,1851800
2018-09-13,72.199997,72.894997,72.050003,72.464996,72.464996,1902400
2018-09-14,72.595001,72.930000,72.110001,72.620003,72.620003,2498000
2018-09-17,72.879997,72.900002,70.635002,70.875000,70.875000,2788200
2018-09-18,70.750000,71.980003,70.570000,71.419998,71.419998,2236600
2018-09-19,71.680000,71.690002,70.889999,71.535004,71.535004,1580600
2018-09-20,71.714996,71.879997,71.105003,71.415001,71.415001,2013400
2018-09-21,71.264999,72.059998,71.190002,71.355003,71.355003,4027800
2018-09-24,71.294998,71.769997,70.995003,71.489998,71.489998,2119600
2018-09-25,71.489998,71.574997,70.995003,71.110001,71.110001,1344000
2018-09-26,71.209999,71.324997,70.690002,70.790001,70.790001,1815200
2018-09-27,71.029999,71.959999,70.790001,71.610001,71.610001,1744000
2018-09-28,71.595001,72.519997,71.375000,72.389999,72.389999,2968400
2018-10-01,72.605003,73.205002,72.434998,72.675003,72.675003,2585600
2018-10-02,72.754997,72.974998,72.080002,72.500000,72.500000,3232600
2018-10-03,72.525002,72.684998,72.144997,72.584999,72.584999,2270000
2018-10-04,72.690002,72.949997,71.324997,71.474998,71.474998,2002800
2018-10-05,71.410004,72.224998,71.330002,71.985001,71.985001,1263200
2018-10-08,71.970001,72.165001,70.525002,71.349998,71.349998,2833200
2018-10-09,71.470001,71.849998,70.930000,71.495003,71.495003,2744600
2018-10-10,71.529999,72.264999,70.830002,70.974998,70.974998,5113200
2018-10-11,70.910004,71.250000,69.129997,69.464996,69.464996,4002000
2018-10-12,70.525002,71.129997,69.489998,70.410004,70.410004,3912600
2018-10-15,70.525002,70.750000,69.455002,69.709999,69.709999,2356400
2018-10-16,70.644997,73.285004,70.570000,73.230003,73.230003,2775800
2018-10-17,73.029999,73.029999,71.860001,72.680000,72.680000,2033200
2018-10-18,72.925003,73.459999,72.294998,72.949997,72.949997,2033400
2018-10-19,73.029999,73.500000,71.165001,71.389999,71.389999,2422800
2018-10-22,71.300003,71.945000,69.394997,70.654999,70.654999,3539400
2018-10-23,67.135002,68.125000,63.564999,67.184998,67.184998,11318400
2018-10-24,67.199997,68.385002,64.754997,64.764999,64.764999,5126800
2018-10-25,64.875000,66.445000,63.970001,65.724998,65.724998,3593800
2018-10-26,65.129997,65.224998,62.535000,63.625000,63.625000,5249800
2018-10-29,64.129997,64.504997,61.474998,62.445000,62.445000,3066600
2018-10-30,62.570000,64.250000,61.919998,64.074997,64.074997,3956200
2018-10-31,64.790001,66.705002,64.790001,65.160004,65.160004,4264400
2018-11-01,65.654999,66.584999,65.120003,65.565002,65.565002,2902400
2018-11-02,65.910004,66.419998,64.224998,64.654999,64.654999,2735600
2018-11-05,64.739998,66.449997,64.595001,65.885002,65.885002,2914000
2018-11-06,65.870003,66.224998,65.040001,65.440002,65.440002,3237400
2018-11-07,66.555000,71.930000,66.254997,71.480003,71.480003,6077000
2018-11-08,71.504997,71.949997,70.544998,71.824997,71.824997,3214400
2018-11-09,71.595001,72.180000,70.610001,71.154999,71.154999,2169000
2018-11-12,71.059998,71.235001,68.690002,68.790001,68.790001,2225200
2018-11-13,68.910004,69.425003,67.750000,68.470001,68.470001,2542800
2018-11-14,69.250000,69.779999,67.480003,68.095001,68.095001,2547600
2018-11-15,67.620003,68.504997,66.320000,67.934998,67.934998,2776000
2018-11-16,67.980003,69.105003,67.500000,68.000000,68.000000,3216800
2018-11-19,67.750000,67.910004,65.415001,65.684998,65.684998,3348600
2018-11-20,65.000000,66.004997,64.139999,65.160004,65.160004,2853200
2018-11-21,65.415001,66.985001,65.404999,66.764999,66.764999,3020200
2018-11-23,66.195000,68.559998,66.105003,68.095001,68.095001,1421200
2018-11-26,68.410004,69.860001,68.410004,69.224998,69.224998,2266000
2018-11-27,68.724998,68.940002,67.269997,68.044998,68.044998,3111600
2018-11-28,68.629997,70.455002,68.250000,70.430000,70.430000,3545400
2018-11-29,70.059998,71.394997,69.875000,70.970001,70.970001,2599800
2018-11-30,71.050003,71.419998,70.555000,71.125000,71.125000,3148000
2018-12-03,71.870003,73.434998,71.504997,73.415001,73.415001,2571800
2018-12-04,73.584999,74.489998,70.995003,71.089996,71.089996,4047000
2018-12-06,69.675003,70.000000,65.595001,67.720001,67.720001,4839400
2018-12-07,67.790001,68.334999,65.945000,66.610001,66.610001,4159800
2018-12-10,66.769997,67.144997,64.500000,66.230003,66.230003,3009200
2018-12-11,67.184998,67.959999,66.025002,66.415001,66.415001,2325600
2018-12-12,67.730003,68.434998,67.055000,67.144997,67.144997,2556000
2018-12-13,67.324997,68.150002,65.699997,66.434998,66.434998,2856200
2018-12-14,66.250000,67.375000,63.165001,63.764999,63.764999,4971800
2018-12-17,59.599998,61.619999,57.340000,60.709999,60.709999,13092200
2018-12-18,60.630001,61.090000,59.119999,60.044998,60.044998,6083000
2018-12-19,60.049999,61.595001,58.990002,59.459999,59.459999,4266800
2018-12-20,59.075001,59.180000,57.009998,57.825001,57.825001,4609200
2018-12-21,57.340000,58.185001,56.080002,56.255001,56.255001,7270600
2018-12-24,55.669998,56.049999,54.470001,54.544998,54.544998,1542200
2018-12-26,54.869999,57.705002,54.840000,57.689999,57.689999,2869200
2018-12-27,56.759998,57.230000,54.250000,56.880001,56.880001,4222800
2018-12-28,56.939999,57.299999,56.095001,56.400002,56.400002,2306200
2018-12-31,56.820000,57.799999,56.810001,57.650002,57.650002,2752000
2019-01-02,57.029999,57.084999,55.865002,56.500000,56.500000,3255400
2019-01-03,56.154999,56.459999,54.860001,54.959999,54.959999,3945000
2019-01-04,55.744999,57.220001,55.470001,56.764999,56.764999,3337600
2019-01-07,56.820000,58.285000,56.820000,57.250000,57.250000,3637800
2019-01-08,57.965000,58.634998,57.424999,58.040001,58.040001,4672200
2019-01-09,58.595001,59.509998,58.270000,59.115002,59.115002,4730000
2019-01-10,59.029999,59.240002,58.340000,59.209999,59.209999,4164000
2019-01-11,59.570000,60.389999,59.244999,59.990002,59.990002,2470800
2019-01-14,59.700001,61.275002,59.529999,60.950001,60.950001,5905400
2019-01-15,61.000000,62.650002,59.685001,62.560001,62.560001,4175400
2019-01-16,63.005001,63.840000,62.540001,63.230000,63.230000,4019600
2019-01-17,62.680000,63.160000,62.279999,62.634998,62.634998,1989200
2019-01-18,62.750000,63.349998,62.380001,63.310001,63.310001,2139600
2019-01-22,62.825001,63.285000,62.270000,62.775002,62.775002,1905800
2019-01-23,63.145000,63.715000,62.064999,62.770000,62.770000,2142200
2019-01-24,62.955002,63.974998,62.820000,63.365002,63.365002,1396400
2019-01-25,64.095001,64.639999,63.805000,64.500000,64.500000,2858600
2019-01-28,63.869999,64.525002,63.299999,64.480003,64.480003,2312800
2019-01-29,64.714996,64.714996,63.115002,63.945000,63.945000,1777400
2019-01-30,64.485001,65.610001,64.144997,65.029999,65.029999,2655200
2019-01-31,65.050003,65.684998,64.535004,65.285004,65.285004,4738600
2019-02-01,65.040001,66.084999,64.660004,65.889999,65.889999,3108000
2019-02-04,65.834999,66.099998,64.004997,64.985001,64.985001,6068000
2019-02-05,68.044998,69.245003,62.865002,63.735001,63.735001,6081200
2019-02-06,63.750000,63.750000,60.915001,63.080002,63.080002,6312000
2019-02-07,64.349998,64.889999,63.040001,63.910000,63.910000,2904700
2019-02-08,63.730000,63.959999,62.240002,62.900002,62.900002,2606500
2019-02-11,62.950001,63.110001,61.619999,61.950001,61.950001,3314400
2019-02-12,62.439999,63.139999,61.570000,63.049999,63.049999,3203600
2019-02-13,63.070000,64.059998,62.930000,63.689999,63.689999,2747400
2019-02-14,63.380001,64.389999,63.060001,63.959999,63.959999,1796300
2019-02-15,64.639999,65.250000,64.470001,64.970001,64.970001,1692900
2019-02-19,64.660004,65.050003,64.050003,64.410004,64.410004,2759800
2019-02-20,64.349998,65.480003,64.150002,65.279999,65.279999,2760000
2019-02-21,65.330002,65.360001,63.189999,63.509998,63.509998,2938700
2019-02-22,63.779999,64.360001,63.490002,64.010002,64.010002,1998400
2019-02-25,64.349998,64.500000,63.869999,64.019997,64.019997,1901200
2019-02-26,63.980000,64.209999,63.599998,63.790001,63.790001,1880300
2019-02-27,63.380001,63.730000,60.910000,61.889999,61.889999,3513300
2019-02-28,62.150002,62.790001,59.930000,60.889999,60.889999,5135600
2019-03-01,61.529999,62.320000,60.660000,61.340000,61.340000,3242400
2019-03-04,61.290001,61.759998,58.080002,58.560001,58.560001,4982100
2019-03-05,58.820000,58.959999,57.439999,58.080002,58.080002,4053700
2019-03-06,57.990002,58.150002,56.790001,56.880001,56.880001,4138100
2019-03-07,56.990002,57.669998,56.340000,56.430000,56.430000,3824600
2019-03-08,56.029999,57.060001,55.900002,56.560001,56.560001,3106300
2019-03-11,56.810001,57.669998,56.099998,57.450001,57.450001,2665600
2019-03-12,57.740002,58.560001,57.529999,58.279999,58.279999,2876200
2019-03-13,58.570000,60.320000,58.389999,59.980000,59.980000,4491500
2019-03-14,59.880001,60.299999,59.250000,59.380001,59.380001,2632600
2019-03-15,59.590000,60.180000,59.070000,59.150002,59.150002,4062600
2019-03-18,59.209999,59.619999,58.980000,59.360001,59.360001,2607900
2019-03-19,59.500000,60.590000,59.320000,59.970001,59.970001,2034400
2019-03-20,59.980000,60.060001,58.529999,58.680000,58.680000,2348000
2019-03-21,58.500000,59.099998,58.139999,58.910000,58.910000,4065700
2019-03-22,58.630001,58.840000,57.049999,57.139999,57.139999,3472400
2019-03-25,57.040001,58.150002,55.810001,57.049999,57.049999,2250000
2019-03-26,56.840000,56.840000,54.209999,54.849998,54.849998,5782300
2019-03-27,50.150002,52.520000,49.560001,52.119999,52.119999,34966800
2019-03-28,52.340000,53.400002,52.040001,52.820000,52.820000,9488800
2019-03-29,53.139999,53.340000,51.740002,53.099998,53.099998,7023200
2019-04-01,53.669998,54.270000,53.060001,54.160000,54.160000,6150900
2019-04-02,54.880001,54.880001,53.320000,53.689999,53.689999,7161000
2019-04-03,54.000000,54.610001,53.160000,53.369999,53.369999,6391800
2019-04-04,53.439999,54.080002,53.299999,53.560001,53.560001,5019200
2019-04-05,53.770000,56.150002,53.520000,55.840000,55.840000,10474500
2019-04-08,55.840000,56.720001,55.209999,56.639999,56.639999,8552900
2019-04-09,56.369999,58.250000,56.000000,57.880001,57.880001,10971700
2019-04-10,58.160000,58.169998,56.860001,57.290001,57.290001,9565400
2019-04-11,57.419998,57.900002,55.029999,55.130001,55.130001,8799000
2019-04-12,55.320000,55.450001,52.360001,52.919998,52.919998,10855400
2019-04-15,53.070000,53.240002,52.259998,53.220001,53.220001,6655100
2019-04-16,53.980000,53.980000,49.270000,50.070000,50.070000,12233500
2019-04-17,50.060001,50.070000,46.099998,47.009998,47.009998,19375300
2019-04-18,47.009998,48.430000,45.439999,48.200001,48.200001,17863700
2019-04-22,48.410000,49.240002,47.709999,48.080002,48.080002,8426000
2019-04-23,48.160000,50.509998,46.849998,50.310001,50.310001,17295900
2019-04-24,50.480000,50.709999,49.770000,50.200001,50.200001,7281000
2019-04-25,49.980000,50.500000,49.259998,50.230000,50.230000,6044600
2019-04-26,50.500000,52.669998,50.389999,52.630001,52.630001,10804700
2019-04-29,52.509998,52.939999,51.959999,52.259998,52.259998,8974100
2019-04-30,52.660000,52.660000,50.349998,51.560001,51.560001,8574700
2019-05-01,51.389999,51.549999,49.630001,49.730000,49.730000,7569500
2019-05-02,49.590000,51.619999,49.400002,51.619999,51.619999,8194800
2019-05-03,51.610001,52.830002,50.720001,52.590000,52.590000,9997800
2019-05-06,51.410000,57.299999,51.349998,56.040001,56.040001,20699200
2019-05-07,55.639999,56.950001,54.900002,55.849998,55.849998,17145600
2019-05-08,55.490002,57.450001,54.779999,56.619999,56.619999,10633800
2019-05-09,55.970001,56.869999,53.439999,54.740002,54.740002,9278300
2019-05-10,54.990002,55.360001,52.799999,55.049999,55.049999,12889400
2019-05-13,53.849998,55.060001,53.380001,54.900002,54.900002,10612300
2019-05-14,55.099998,55.459999,53.500000,54.740002,54.740002,16414500
2019-05-15,54.049999,55.299999,54.049999,54.430000,54.430000,12671200
2019-05-16,54.509998,56.160000,54.230000,55.570000,55.570000,14879800
2019-05-17,54.810001,56.529999,54.810001,56.040001,56.040001,11761600
2019-05-20,55.619999,56.419998,55.189999,55.509998,55.509998,6970800
2019-05-21,55.930000,57.310001,55.910000,57.139999,57.139999,6183800
2019-05-22,57.000000,57.160000,56.520000,56.779999,56.779999,3165500
2019-05-23,55.869999,56.119999,54.930000,55.419998,55.419998,5993900
2019-05-24,55.750000,57.509998,54.580002,56.869999,56.869999,13305000
2019-05-28,56.889999,58.230000,56.029999,56.090000,56.090000,8181600
2019-05-29,55.750000,56.759998,54.919998,56.230000,56.230000,5363300
2019-05-30,56.340000,57.299999,55.880001,57.000000,57.000000,4916500
2019-05-31,56.560001,58.240002,55.570000,57.750000,57.750000,8964400
2019-06-03,53.500000,54.230000,51.110001,51.820000,51.820000,35998400
2019-06-04,52.540001,54.320000,52.400002,53.939999,53.939999,12784800
2019-06-05,54.200001,54.250000,53.200001,53.869999,53.869999,12850700
2019-06-06,53.990002,54.509998,53.660000,53.889999,53.889999,4448400
2019-06-07,54.150002,54.580002,53.700001,54.209999,54.209999,4035800
2019-06-10,54.740002,55.290001,54.450001,54.970001,54.970001,5137900
2019-06-11,55.410000,55.549999,54.160000,54.160000,54.160000,5528200
2019-06-12,54.360001,54.389999,53.060001,53.689999,53.689999,7357700
2019-06-13,53.709999,54.220001,53.259998,53.740002,53.740002,7410000
2019-06-14,53.900002,54.150002,53.099998,53.549999,53.549999,3258000
2019-06-17,53.650002,55.049999,53.590000,55.009998,55.009998,5650000
2019-06-18,55.119999,55.959999,54.750000,55.259998,55.259998,4983400
2019-06-19,55.230000,55.689999,54.619999,55.459999,55.459999,4296500
2019-06-20,55.990002,56.020000,54.860001,55.380001,55.380001,4444900
2019-06-21,55.549999,56.709999,55.200001,56.369999,56.369999,8455600
2019-06-24,56.360001,56.700001,54.700001,55.330002,55.330002,5822100
2019-06-25,55.389999,55.520000,53.810001,53.910000,53.910000,6899300
2019-06-26,54.080002,54.270000,52.020000,52.020000,52.020000,6365700
2019-06-27,52.020000,53.070000,51.430000,52.439999,52.439999,4914900
2019-06-28,52.459999,52.529999,51.270000,52.439999,52.439999,6968100
2019-07-01,53.049999,53.169998,50.450001,51.349998,51.349998,7691200
2019-07-02,51.349998,51.750000,50.700001,51.540001,51.540001,4544100
2019-07-03,51.419998,52.040001,51.150002,51.349998,51.349998,2526900
2019-07-05,51.139999,52.240002,51.110001,51.480000,51.480000,2340000
2019-07-08,51.290001,51.520000,50.610001,51.259998,51.259998,2771700
2019-07-09,51.340000,51.639999,49.959999,50.450001,50.450001,4915900
2019-07-10,50.610001,51.500000,50.200001,51.209999,51.209999,4000900
2019-07-11,53.009998,53.650002,52.099998,53.220001,53.220001,9779800
2019-07-12,52.869999,54.599998,52.860001,54.509998,54.509998,5939800
2019-07-15,54.730000,54.889999,53.970001,54.060001,54.060001,4140600
2019-07-16,54.110001,54.160000,53.470001,53.740002,53.740002,2943200
2019-07-17,53.529999,54.029999,53.180000,53.230000,53.230000,3246100
2019-07-18,53.070000,53.980000,52.560001,53.169998,53.169998,5009900
2019-07-19,53.209999,53.250000,52.220001,52.660000,52.660000,3910100
2019-07-22,52.750000,53.250000,52.169998,52.189999,52.189999,3194400
2019-07-23,51.000000,53.220001,50.389999,52.560001,52.560001,8023200
2019-07-24,52.790001,53.790001,50.650002,53.730000,53.730000,6643000
2019-07-25,53.790001,53.900002,52.060001,52.130001,52.130001,5370000
2019-07-26,52.570000,53.810001,52.259998,53.419998,53.419998,3869100
2019-07-29,53.360001,54.279999,53.209999,53.840000,53.840000,4733200
2019-07-30,53.869999,53.869999,53.090000,53.799999,53.799999,3621000
2019-07-31,54.040001,54.240002,52.020000,52.090000,52.090000,4421400
2019-08-01,52.000000,52.349998,50.799999,51.349998,51.349998,5693700
2019-08-02,51.299999,51.759998,50.119999,50.970001,50.970001,4526500
2019-08-05,50.220001,50.509998,47.980000,48.520000,48.520000,7517700
2019-08-06,49.060001,49.340000,48.310001,48.950001,48.950001,6156200
2019-08-07,48.040001,49.119999,47.029999,48.959999,48.959999,7480100
2019-08-08,49.220001,49.529999,48.680000,49.450001,49.450001,4418300
2019-08-09,49.270000,49.720001,48.639999,48.700001,48.700001,3989500
2019-08-12,48.360001,48.880001,47.820000,47.959999,47.959999,3401100
2019-08-13,47.660000,50.000000,47.660000,49.730000,49.730000,4510300
2019-08-14,48.770000,49.000000,47.490002,47.779999,47.779999,4568200
2019-08-15,48.049999,48.139999,47.060001,47.560001,47.560001,4356100
2019-08-16,48.000000,48.590000,47.939999,48.009998,48.009998,3718300
2019-08-19,48.669998,48.669998,47.060001,47.439999,47.439999,6304300
2019-08-20,47.360001,47.450001,46.490002,46.540001,46.540001,4090900
2019-08-21,46.880001,47.299999,46.770000,46.930000,46.930000,2995400
2019-08-22,47.040001,47.160000,45.509998,45.549999,45.549999,5372500
2019-08-23,45.250000,45.849998,44.500000,44.720001,44.720001,4308100
2019-08-26,45.099998,45.299999,44.730000,45.270000,45.270000,4667300
2019-08-27,45.299999,45.860001,44.529999,45.029999,45.029999,7486500
2019-08-28,44.799999,45.750000,44.580002,45.320000,45.320000,4112100
2019-08-29,45.779999,46.360001,45.509998,46.320000,46.320000,3723000
2019-08-30,46.740002,47.009998,46.240002,46.619999,46.619999,3041400
2019-09-03,46.220001,46.310001,45.580002,46.139999,46.139999,3021700
2019-09-04,46.540001,46.669998,45.500000,45.610001,45.610001,2613900
2019-09-05,46.169998,46.480000,45.500000,46.139999,46.139999,2627300
2019-09-06,46.299999,46.669998,45.779999,45.889999,45.889999,3079900
2019-09-09,45.910000,46.400002,45.279999,46.230000,46.230000,5532200
2019-09-10,46.330002,47.480000,45.779999,47.310001,47.310001,4449100
2019-09-11,47.419998,47.529999,46.450001,46.779999,46.779999,2730900
2019-09-12,47.090000,47.169998,44.810001,44.889999,44.889999,6338500
2019-09-13,45.360001,46.119999,45.250000,45.400002,45.400002,5923900
2019-09-16,45.150002,46.459999,45.150002,46.119999,46.119999,5330100
2019-09-17,46.090000,46.230000,45.480000,45.549999,45.549999,5660100
2019-09-18,45.470001,46.400002,45.410000,46.000000,46.000000,4378100
2019-09-19,46.250000,47.169998,46.200001,46.450001,46.450001,4133900
2019-09-20,46.680000,46.900002,46.049999,46.389999,46.389999,6125800
2019-09-23,46.119999,46.490002,45.849998,46.389999,46.389999,3173500
2019-09-24,46.619999,46.759998,45.220001,45.779999,45.779999,4367200
2019-09-25,45.639999,46.470001,45.290001,45.330002,45.330002,3308100
2019-09-26,45.189999,45.349998,42.959999,43.130001,43.130001,6626300
2019-09-27,43.419998,43.750000,42.770000,43.169998,43.169998,4643300
2019-09-30,43.090000,43.689999,42.930000,43.259998,43.259998,4833100
2019-10-01,43.500000,43.619999,41.619999,42.750000,42.750000,7653800
2019-10-02,42.470001,43.450001,42.189999,42.730000,42.730000,5790900
2019-10-03,42.529999,43.279999,42.450001,43.230000,43.230000,4949100
2019-10-04,43.439999,43.730000,42.759998,43.570000,43.570000,3165600
2019-10-07,43.509998,44.410000,43.369999,43.820000,43.820000,5564600
2019-10-08,43.419998,43.580002,42.630001,42.759998,42.759998,7304900
2019-10-09,43.099998,43.950001,43.020000,43.820000,43.820000,4128000
2019-10-10,43.680000,44.270000,43.290001,44.090000,44.090000,4536100
2019-10-11,44.669998,45.240002,44.200001,44.270000,44.270000,3173000
2019-10-14,44.119999,44.369999,43.709999,43.900002,43.900002,2466600
2019-10-15,44.680000,46.000000,44.400002,45.209999,45.209999,5746500
2019-10-16,44.889999,45.750000,44.830002,45.540001,45.540001,3485000
2019-10-17,45.980000,47.259998,45.799999,47.180000,47.180000,7092800
2019-10-18,47.090000,47.290001,46.130001,46.880001,46.880001,5060200
2019-10-21,47.200001,47.299999,45.770000,45.770000,45.770000,5588200
2019-10-22,45.680000,49.580002,45.220001,48.750000,48.750000,10963900
2019-10-23,48.259998,48.910000,47.500000,48.389999,48.389999,5381800
2019-10-24,48.700001,48.700001,47.070000,47.639999,47.639999,3380700
2019-10-25,47.529999,48.419998,47.060001,48.230000,48.230000,4483800
2019-10-28,48.250000,49.259998,48.099998,48.599998,48.599998,4286800
2019-10-29,48.619999,50.040001,48.369999,49.910000,49.910000,6421100
2019-10-30,53.000000,54.439999,52.520000,54.040001,54.040001,13755800
2019-10-31,53.799999,54.360001,52.200001,53.080002,53.080002,5871800
2019-11-01,53.400002,53.759998,52.060001,52.130001,52.130001,5498000
2019-11-04,52.389999,52.430000,51.009998,51.709999,51.709999,5710100
2019-11-05,51.990002,52.480000,51.250000,51.840000,51.840000,3448800
2019-11-06,51.849998,52.389999,50.810001,50.830002,50.830002,3872000
