Date,Open,High,Low,Close,Adj Close,Volume
2017-11-06,151.770004,151.820007,150.279999,150.839996,137.955170,4498400
2017-11-07,151.369995,151.509995,150.500000,151.350006,138.421600,3701100
2017-11-08,151.600006,151.789993,150.279999,151.570007,138.622803,4634400
2017-11-09,149.929993,151.800003,149.860001,150.300003,138.835266,4776500
2017-11-10,150.649994,150.889999,149.139999,149.160004,137.782227,4307300
2017-11-13,148.880005,149.000000,147.919998,148.399994,137.080185,5107500
2017-11-14,147.949997,148.970001,147.490005,148.889999,137.532852,3758000
2017-11-15,148.000000,148.710007,146.210007,147.100006,135.879379,4773300
2017-11-16,147.729996,149.649994,147.500000,149.119995,137.745270,5446500
2017-11-17,149.339996,150.149994,148.830002,148.970001,137.606720,4916500
2017-11-20,150.639999,151.949997,149.899994,150.509995,139.029236,5676500
2017-11-21,151.300003,152.449997,151.199997,151.949997,140.359390,3756200
2017-11-22,152.000000,152.389999,151.330002,151.770004,140.193130,3213600
2017-11-24,151.949997,152.199997,151.330002,151.839996,140.257782,1193000
2017-11-27,152.059998,152.490005,151.619995,151.979996,140.387115,3374000
2017-11-28,152.350006,152.929993,151.699997,152.470001,140.839737,3973700
2017-11-29,152.809998,153.610001,152.169998,153.550003,141.837357,5098700
2017-11-30,153.649994,154.410004,153.080002,153.970001,142.225311,6500800
2017-12-01,154.399994,155.020004,152.910004,154.759995,142.955063,5567900
2017-12-04,155.960007,156.800003,155.070007,156.460007,144.525406,4664300
2017-12-05,156.449997,156.740005,154.679993,155.350006,143.500076,5068000
2017-12-06,154.100006,156.220001,154.089996,154.100006,142.345413,3410700
2017-12-07,153.589996,154.449997,153.259995,153.570007,141.855850,3771100
2017-12-08,154.979996,155.029999,153.550003,154.809998,143.001236,3520300
2017-12-11,155.460007,155.889999,154.570007,155.410004,143.555466,4102700
2017-12-12,157.300003,157.850006,155.160004,156.740005,144.784042,6321800
2017-12-13,156.600006,156.729996,153.889999,153.910004,142.169891,5661600
2017-12-14,154.600006,155.110001,153.699997,154.000000,142.253036,4637400
2017-12-15,153.610001,153.800003,152.029999,152.500000,140.867447,11279900
2017-12-18,153.589996,154.179993,153.210007,153.330002,141.634140,5092800
2017-12-19,154.050003,154.169998,153.089996,153.229996,141.541779,4116400
2017-12-20,153.649994,153.889999,152.779999,152.949997,141.283127,3785700
2017-12-21,153.169998,153.460007,151.490005,151.500000,139.943741,4153900
2017-12-22,151.820007,153.000000,151.500000,152.500000,140.867447,2990600
2017-12-26,152.509995,153.860001,152.500000,152.830002,141.172272,2479000
2017-12-27,152.949997,153.179993,152.610001,153.130005,141.449402,2149300
2017-12-28,153.199997,154.119995,153.199997,154.039993,142.289978,2687600
2017-12-29,154.169998,154.720001,153.419998,153.419998,141.717285,3327100
2018-01-02,154.500000,154.809998,153.539993,154.250000,142.483978,4202500
2018-01-03,157.339996,159.809998,156.330002,158.490005,146.400558,9441600
2018-01-04,159.649994,162.320007,159.369995,161.699997,149.365707,7556200
2018-01-05,162.440002,162.899994,161.100006,162.490005,150.095444,5195800
2018-01-08,162.660004,163.910004,161.699997,163.470001,151.000687,5237500
2018-01-09,163.899994,164.529999,163.059998,163.830002,151.333221,4341800
2018-01-10,162.910004,164.330002,162.500000,164.179993,151.656525,4174100
2018-01-11,164.800003,164.940002,163.300003,164.199997,151.675003,3794500
2018-01-12,164.020004,164.740005,163.029999,163.139999,150.695847,5031900
2018-01-16,165.100006,165.289993,163.350006,163.850006,151.351700,7794200
2018-01-17,168.009995,169.130005,167.259995,168.649994,155.785538,11710000
2018-01-18,170.000000,171.130005,168.149994,169.119995,156.219681,14259300
2018-01-19,164.460007,165.399994,161.300003,162.369995,149.984573,21172500
2018-01-22,161.509995,163.979996,161.110001,162.600006,150.197052,8480800
2018-01-23,162.820007,166.259995,162.509995,166.250000,153.568619,7466200
2018-01-24,166.750000,168.720001,164.820007,165.369995,152.755737,5645000
2018-01-25,165.910004,166.779999,165.190002,165.470001,152.848114,3302500
2018-01-26,166.119995,167.410004,165.789993,167.339996,154.575485,3787900
2018-01-29,167.449997,168.389999,166.009995,166.800003,154.076660,3517000
2018-01-30,166.210007,166.770004,163.160004,163.619995,151.139236,4902300
2018-01-31,163.750000,164.990005,162.759995,163.699997,151.213120,4072800
2018-02-01,163.190002,164.130005,161.899994,162.399994,150.012283,4434200
2018-02-02,161.699997,162.000000,158.869995,159.029999,146.899338,5251900
2018-02-05,157.889999,158.500000,150.000000,152.529999,140.895157,8746600
2018-02-06,150.289993,155.490005,149.110001,155.339996,143.490814,9867700
2018-02-07,154.169998,155.339996,153.279999,153.850006,142.114487,6149200
2018-02-08,152.479996,153.160004,147.500000,147.589996,137.674271,6779100
2018-02-09,148.600006,150.539993,144.399994,149.509995,139.465302,7828300
2018-02-12,150.899994,152.399994,150.300003,151.399994,141.228287,5881400
2018-02-13,150.899994,151.179993,149.639999,150.750000,140.621979,4891000
2018-02-14,150.190002,155.000000,150.000000,154.759995,144.362564,5479000
2018-02-15,155.500000,156.860001,153.699997,156.009995,145.528610,5623600
2018-02-16,155.710007,157.789993,155.690002,156.179993,145.687164,4282900
2018-02-20,155.789993,155.960007,153.869995,155.160004,144.735687,4489600
2018-02-21,155.429993,156.789993,153.899994,153.960007,143.616333,3728600
2018-02-22,154.500000,155.039993,152.789993,153.179993,142.888702,4024600
2018-02-23,154.300003,155.850006,154.070007,155.520004,145.071518,3256100
2018-02-26,155.809998,158.880005,155.509995,158.580002,147.925934,3610300
2018-02-27,158.460007,159.779999,156.529999,156.550003,146.032318,4237300
2018-02-28,157.500000,158.139999,155.800003,155.830002,145.360672,3803500
2018-03-01,155.529999,156.970001,152.789993,153.809998,143.476364,4039300
2018-03-02,152.789993,154.759995,151.880005,154.490005,144.110718,3261100
2018-03-05,154.119995,157.490005,153.750000,156.949997,146.405426,3670600
2018-03-06,157.279999,157.889999,155.160004,155.720001,145.258057,3685700
2018-03-07,155.000000,158.830002,154.729996,158.320007,147.683426,4607700
2018-03-08,159.000000,159.570007,155.070007,156.210007,145.715164,6455600
2018-03-09,157.470001,159.580002,157.300003,159.309998,148.606888,5022200
2018-03-12,159.639999,161.020004,158.869995,160.259995,149.493042,5063500
2018-03-13,160.089996,162.110001,158.809998,159.320007,148.616196,4185600
2018-03-14,160.169998,160.679993,157.740005,158.119995,147.496841,3631800
2018-03-15,158.710007,161.250000,158.520004,159.610001,148.886719,3870600
2018-03-16,160.059998,161.979996,159.639999,160.259995,149.493042,9262700
2018-03-19,159.710007,159.889999,156.449997,157.350006,146.778549,5482000
2018-03-20,157.520004,157.929993,155.289993,156.199997,145.705811,4336700
2018-03-21,156.570007,158.199997,155.919998,156.690002,146.162903,3482200
2018-03-22,155.000000,155.250000,152.000000,152.089996,141.871933,4746300
2018-03-23,152.250000,152.580002,148.539993,148.889999,138.886948,4440900
2018-03-26,151.210007,153.660004,150.279999,153.369995,143.065948,4103900
2018-03-27,153.949997,154.869995,151.160004,151.910004,141.704041,3883700
2018-03-28,152.070007,153.860001,151.889999,152.520004,142.273056,3664800
2018-03-29,153.070007,153.889999,151.080002,153.429993,143.121918,3420000
2018-04-02,153.339996,153.380005,148.429993,150.070007,139.987656,5150400
2018-04-03,150.800003,151.000000,148.300003,149.850006,139.782455,4135700
2018-04-04,147.889999,154.470001,147.449997,154.119995,143.765564,4805300
2018-04-05,154.440002,154.919998,153.339996,154.029999,143.681610,3185400
2018-04-06,153.460007,153.949997,149.539993,150.570007,140.454086,3672900
2018-04-09,151.800003,154.660004,151.740005,152.690002,142.431641,4413200
2018-04-10,155.029999,156.600006,154.750000,155.389999,144.950241,3806400
2018-04-11,154.369995,155.779999,153.880005,155.360001,144.922256,3306500
2018-04-12,156.750000,158.979996,156.669998,158.070007,147.450195,5639400
2018-04-13,158.669998,159.220001,155.910004,156.710007,146.181564,4057100
2018-04-16,157.990005,159.139999,157.669998,157.889999,147.282272,4186800
2018-04-17,158.820007,162.000000,158.509995,160.910004,150.099396,10207500
2018-04-18,152.139999,152.630005,148.259995,148.789993,138.793655,20381700
2018-04-19,149.190002,149.210007,146.619995,147.699997,137.776886,8086100
2018-04-20,147.899994,147.970001,144.509995,144.899994,135.164993,8265600
2018-04-23,145.029999,145.960007,144.330002,145.860001,136.060516,5315600
2018-04-24,146.509995,147.300003,144.529999,145.559998,135.780670,4916500
2018-04-25,145.789993,146.399994,144.110001,145.940002,136.135147,7326400
2018-04-26,146.600006,147.360001,146.199997,146.720001,136.862701,4265800
2018-04-27,146.839996,147.250000,145.660004,146.479996,136.638870,3205500
2018-04-30,146.860001,147.380005,144.960007,144.960007,135.220978,4415500
2018-05-01,144.649994,145.020004,143.470001,145.000000,135.258270,4433400
2018-05-02,144.460007,144.820007,142.070007,142.449997,132.879608,5194900
2018-05-03,142.130005,142.229996,139.899994,141.990005,132.450516,5018600
2018-05-04,141.100006,144.350006,140.279999,143.910004,134.241486,4402200
2018-05-07,144.000000,144.320007,142.639999,143.220001,133.597855,3657000
2018-05-08,143.000000,143.509995,142.059998,143.000000,133.392670,5369100
2018-05-09,141.899994,143.020004,141.279999,142.610001,134.505585,4196000
2018-05-10,143.149994,144.330002,143.009995,144.240005,136.042953,3726600
2018-05-11,144.110001,144.850006,143.580002,144.139999,135.948639,3073200
2018-05-14,144.470001,145.119995,144.139999,144.300003,136.099564,3216100
2018-05-15,143.500000,143.990005,142.919998,143.740005,135.571381,4089400
2018-05-16,143.699997,145.029999,143.270004,144.630005,136.410797,3168700
2018-05-17,144.500000,145.190002,143.770004,144.500000,136.288193,3147700
2018-05-18,144.470001,144.940002,143.990005,144.080002,135.892059,2682200
2018-05-21,144.949997,146.039993,144.679993,145.490005,137.221939,2894700
2018-05-22,145.520004,146.199997,145.000000,145.089996,136.844650,2284000
2018-05-23,144.350006,144.699997,143.479996,144.669998,136.448532,3459700
2018-05-24,144.389999,144.479996,142.949997,144.070007,135.882629,3398700
2018-05-25,143.899994,144.570007,143.460007,143.639999,135.477051,4914300
2018-05-29,142.529999,142.889999,140.210007,141.220001,133.194595,4537600
2018-05-30,141.899994,143.100006,141.820007,142.619995,134.515015,5118500
2018-05-31,142.809998,142.809998,141.050003,141.309998,133.279465,6830300
2018-06-01,142.429993,142.839996,141.619995,141.949997,133.883087,3857500
2018-06-04,142.300003,143.169998,142.179993,143.039993,134.911148,3035300
2018-06-05,143.050003,144.080002,143.039993,143.699997,135.533646,2836000
2018-06-06,144.339996,144.720001,143.539993,144.710007,136.486252,3220100
2018-06-07,145.000000,146.699997,144.929993,145.360001,137.099319,4316500
2018-06-08,145.000000,146.429993,144.369995,146.139999,137.834991,5210500
2018-06-11,146.619995,147.410004,146.139999,146.580002,138.249985,3260000
2018-06-12,147.100006,147.520004,146.619995,146.869995,138.523483,2640500
2018-06-13,146.789993,147.470001,146.199997,146.350006,138.033066,2968200
2018-06-14,146.649994,146.979996,145.089996,145.199997,136.948395,3326300
2018-06-15,144.899994,145.470001,143.699997,145.389999,137.127594,9116000
2018-06-18,144.179993,144.520004,143.139999,144.479996,136.269318,4286400
2018-06-19,143.119995,144.220001,142.949997,143.899994,135.722275,3487000
2018-06-20,144.220001,144.520004,142.410004,142.630005,134.524460,3329900
2018-06-21,142.589996,143.139999,140.830002,141.250000,133.222870,3887700
2018-06-22,141.639999,141.809998,140.779999,141.279999,133.251175,5611300
2018-06-25,140.399994,140.399994,138.279999,138.789993,130.902679,8937100
2018-06-26,139.360001,139.850006,138.330002,139.080002,131.176178,4139500
2018-06-27,139.110001,139.779999,137.449997,137.479996,129.667130,4101800
2018-06-28,138.100006,140.539993,137.949997,140.039993,132.081619,4523700
2018-06-29,140.320007,141.360001,139.610001,139.699997,131.760971,3710100
2018-07-02,138.279999,140.220001,138.199997,139.860001,131.911865,3405400
2018-07-03,140.649994,140.940002,139.369995,139.570007,131.638336,1963200
2018-07-05,140.479996,141.429993,139.929993,141.429993,133.392654,3744700
2018-07-06,141.529999,142.940002,141.169998,142.479996,134.382980,2849000
2018-07-09,142.589996,144.720001,142.470001,144.389999,136.184433,3904700
2018-07-10,144.509995,145.589996,144.259995,144.710007,136.486252,3777000
2018-07-11,144.000000,146.190002,144.000000,144.940002,136.703171,3526600
2018-07-12,145.850006,146.830002,145.740005,146.449997,138.127365,3119500
2018-07-13,146.449997,146.979996,145.800003,145.899994,137.608612,3062600
2018-07-16,145.669998,145.789993,144.210007,145.460007,137.193634,3468800
2018-07-17,144.750000,145.000000,143.339996,143.490005,135.335571,5096700
2018-07-18,143.509995,144.800003,142.740005,144.520004,136.307037,6935300
2018-07-19,147.850006,150.539993,147.250000,149.240005,140.758820,14655800
2018-07-20,148.580002,148.860001,146.259995,146.350006,138.033066,6414600
2018-07-23,146.350006,146.699997,145.009995,145.699997,137.419983,3897900
2018-07-24,146.699997,147.039993,145.919998,146.380005,138.061340,3891600
2018-07-25,146.009995,146.649994,145.500000,146.619995,138.287689,3630900
2018-07-26,147.429993,149.270004,146.630005,146.710007,138.372589,4778000
2018-07-27,146.889999,147.139999,144.660004,145.149994,136.901245,3749300
2018-07-30,144.800003,146.240005,144.690002,145.490005,137.221939,3608200
2018-07-31,145.740005,145.800003,144.160004,144.929993,136.693756,5474200
2018-08-01,144.759995,145.190002,143.339996,143.500000,135.345016,3388400
2018-08-02,142.860001,143.360001,142.330002,142.960007,134.835709,3841400
2018-08-03,143.240005,147.919998,143.000000,147.699997,139.306335,8053600
2018-08-06,146.949997,147.199997,145.570007,146.029999,137.731232,3913700
2018-08-07,146.649994,147.639999,146.350006,147.009995,138.655548,3508800
2018-08-08,147.330002,147.429993,146.240005,146.889999,138.542358,3581100
2018-08-09,145.529999,145.940002,144.729996,144.770004,138.018021,3093500
2018-08-10,144.500000,145.070007,143.880005,144.479996,137.741531,3003100
2018-08-13,144.149994,144.300003,142.529999,142.710007,136.054092,2858500
2018-08-14,143.000000,143.820007,142.929993,143.360001,136.673767,2860000
2018-08-15,142.550003,144.000000,142.000000,143.910004,137.198105,4241500
2018-08-16,144.369995,145.679993,144.369995,145.339996,138.561432,5250700
2018-08-17,144.789993,146.389999,144.690002,146.059998,139.247864,2678600
2018-08-20,146.369995,147.160004,146.149994,146.509995,139.676849,2499700
2018-08-21,147.000000,147.119995,145.889999,145.970001,139.162048,3106900
2018-08-22,146.009995,146.160004,145.190002,145.240005,138.466110,2389000
2018-08-23,145.039993,145.520004,144.750000,145.369995,138.590012,2220400
2018-08-24,145.460007,146.089996,144.869995,146.039993,139.228775,2776600
2018-08-27,146.940002,147.619995,146.520004,146.690002,139.848465,3491600
2018-08-28,146.949997,146.990005,146.190002,146.589996,139.753128,2455300
2018-08-29,146.869995,147.929993,146.600006,147.539993,140.658813,3153800
2018-08-30,147.029999,147.300003,145.250000,145.929993,139.123901,3340400
2018-08-31,145.720001,146.779999,145.539993,146.479996,139.648239,3488500
2018-09-04,145.979996,146.190002,144.809998,145.679993,138.885544,3326200
2018-09-05,145.190002,146.750000,145.050003,146.660004,139.819870,3126500
2018-09-06,146.880005,147.660004,145.539993,146.389999,139.562469,4248800
2018-09-07,145.940002,146.500000,145.119995,145.449997,138.666306,4693100
2018-09-10,146.600006,147.300003,145.559998,145.649994,138.856964,3618300
2018-09-11,146.000000,146.990005,145.250000,146.490005,139.657791,3374700
2018-09-12,146.369995,147.979996,146.029999,146.570007,139.734070,4506700
2018-09-13,147.350006,149.000000,147.119995,148.949997,142.003052,5346500
2018-09-14,148.850006,149.300003,147.779999,148.330002,141.411957,3452100
2018-09-17,148.440002,149.070007,147.770004,147.940002,141.040176,3551900
2018-09-18,147.759995,148.990005,147.470001,148.559998,141.631256,3629400
2018-09-19,148.630005,149.960007,148.229996,149.059998,142.107925,4246200
2018-09-20,149.580002,151.380005,149.440002,151.149994,144.100449,5952200
2018-09-21,151.479996,152.600006,150.740005,151.350006,144.291138,19947500
2018-09-24,151.100006,151.199997,149.460007,150.029999,143.032684,4265000
2018-09-25,149.910004,150.410004,148.360001,148.910004,141.964935,4397500
2018-09-26,152.399994,153.350006,151.339996,151.610001,144.539001,7401900
2018-09-27,152.009995,152.389999,151.160004,151.500000,144.434143,3477600
2018-09-28,151.160004,151.630005,150.789993,151.210007,144.157669,3305800
2018-10-01,151.710007,153.419998,151.710007,153.000000,145.864166,3757400
2018-10-02,152.990005,153.839996,152.500000,153.750000,146.579178,3029900
2018-10-03,154.000000,154.360001,152.800003,153.220001,146.073898,3315300
2018-10-04,151.690002,152.800003,150.360001,151.309998,144.252991,4237900
2018-10-05,150.899994,151.789993,147.869995,149.029999,142.079330,4602200
2018-10-08,148.500000,149.070007,147.179993,148.389999,141.469162,3239300
2018-10-09,148.080002,148.360001,146.929993,147.240005,140.372818,3642400
2018-10-10,147.500000,147.690002,142.500000,142.690002,136.035004,5547700
2018-10-11,142.619995,144.190002,138.779999,139.020004,132.536179,8710500
2018-10-12,141.119995,141.539993,139.080002,140.850006,134.280838,6563400
2018-10-15,140.380005,142.259995,140.139999,141.130005,134.547791,4965500
2018-10-16,142.929993,145.449997,141.580002,145.119995,138.351685,8695500
2018-10-17,135.889999,137.149994,133.419998,134.050003,127.797989,19464000
2018-10-18,132.729996,133.399994,130.039993,130.550003,124.461220,10011700
2018-10-19,130.649994,131.889999,127.959999,129.100006,123.078857,7791600
2018-10-22,129.580002,130.440002,128.399994,130.020004,123.955940,5719500
2018-10-23,129.020004,131.899994,128.410004,131.210007,125.090446,6463600
2018-10-24,131.169998,131.690002,127.000000,127.209999,121.277000,5710300
2018-10-25,127.250000,127.790001,125.139999,126.449997,120.552444,10304300
2018-10-26,125.209999,125.779999,123.709999,124.790001,118.969864,8767000
2018-10-29,119.339996,123.949997,118.300003,119.639999,114.060059,20450400
2018-10-30,120.480003,121.500000,115.150002,115.400002,110.017807,21458600
2018-10-31,116.489998,116.500000,114.089996,115.430000,110.046410,21645000
2018-11-01,115.500000,117.000000,115.110001,116.830002,111.381119,13626700
2018-11-02,117.510002,117.750000,114.540001,115.669998,110.275215,10592700
2018-11-05,116.099998,120.769997,116.000000,120.059998,114.460464,9144600
2018-11-06,120.699997,123.809998,120.309998,123.120003,117.377762,9597400
2018-11-07,123.790001,125.059998,122.330002,124.839996,119.017525,12382700
2018-11-08,122.660004,124.400002,122.629997,123.379997,119.123734,10396400
2018-11-09,123.610001,124.570000,121.959999,123.540001,119.278229,6961800
2018-11-12,123.500000,123.570000,120.650002,120.900002,116.729294,5379100
2018-11-13,121.190002,122.250000,119.900002,120.839996,116.671356,4084400
2018-11-14,121.110001,121.930000,119.769997,120.199997,116.053444,4762300
2018-11-15,119.660004,121.440002,119.510002,121.440002,117.250671,5207900
2018-11-16,120.889999,121.849998,120.540001,121.570000,117.376175,4076300
2018-11-19,121.629997,122.180000,119.769997,120.309998,116.159645,4131200
2018-11-20,118.489998,119.489998,116.699997,117.199997,113.156929,6233800
2018-11-21,117.610001,119.510002,117.389999,118.570000,114.479668,5335800
2018-11-23,118.089996,118.339996,116.910004,117.190002,113.147278,2334700
2018-11-26,118.370003,120.250000,118.059998,119.559998,115.435516,5011100
2018-11-27,118.379997,120.040001,118.370003,120.029999,115.889297,4903800
2018-11-28,121.010002,123.089996,120.220001,123.000000,118.756851,5104500
2018-11-29,122.440002,123.120003,121.400002,121.480003,117.289284,5200100
2018-11-30,121.660004,124.690002,121.480003,124.269997,119.983032,7251600
2018-12-03,125.669998,126.589996,124.360001,125.309998,120.987160,5846400
2018-12-04,124.489998,124.919998,121.330002,121.599998,117.405136,6000700
2018-12-06,119.720001,123.910004,119.300003,123.910004,119.635460,6938000
2018-12-07,123.900002,124.050003,118.870003,119.339996,115.223106,7019600
2018-12-10,119.739998,121.680000,118.519997,121.129997,116.951355,6549500
2018-12-11,123.250000,123.809998,120.000000,120.889999,116.719635,5043100
2018-12-12,122.510002,122.879997,121.000000,121.160004,116.980324,3560500
2018-12-13,121.260002,121.790001,120.169998,120.730003,116.565170,3993600
2018-12-14,119.500000,121.110001,119.440002,119.900002,115.763786,4554200
2018-12-17,119.070000,119.779999,115.070000,116.099998,112.094879,7374500
2018-12-18,116.900002,118.230003,116.019997,116.650002,112.625908,6290200
2018-12-19,117.150002,120.269997,115.970001,116.430000,112.413498,6979800
2018-12-20,115.699997,116.449997,111.699997,113.019997,109.121124,8454400
2018-12-21,112.500000,115.279999,110.440002,110.940002,107.112885,10386500
2018-12-24,109.900002,111.000000,107.500000,107.570000,103.859131,3821400
2018-12-26,108.000000,111.389999,105.940002,111.389999,107.547356,6645800
2018-12-27,109.989998,113.779999,109.470001,113.779999,109.854912,6045600
2018-12-28,114.220001,114.800003,112.500000,113.029999,109.130783,5117500
2018-12-31,113.330002,114.349998,112.419998,113.669998,109.748711,4982800
2019-01-02,112.010002,115.980003,111.690002,115.209999,111.235573,4239900
2019-01-03,114.529999,114.879997,112.690002,112.910004,109.014923,4346700
2019-01-04,114.910004,117.489998,114.440002,117.320000,113.272789,4477800
2019-01-07,117.500000,118.830002,116.669998,118.150002,114.074165,3751200
2019-01-08,119.660004,120.570000,118.980003,119.830002,115.696205,4763600
2019-01-09,120.910004,121.400002,119.870003,120.690002,116.526535,3633700
2019-01-10,120.080002,121.860001,119.949997,121.790001,117.588585,3910000
2019-01-11,121.580002,121.620003,120.199997,121.459999,117.269974,3722400
2019-01-14,120.510002,120.650002,119.760002,120.389999,116.236893,5228700
2019-01-15,120.959999,121.930000,120.820000,121.730003,117.530670,3507500
2019-01-16,121.580002,122.000000,120.830002,121.620003,117.424461,3841100
2019-01-17,120.559998,122.410004,120.550003,122.190002,117.974800,5029900
2019-01-18,123.269997,124.720001,122.709999,123.820000,119.548561,6008500
2019-01-22,123.300003,123.800003,121.540001,122.519997,118.293404,10052400
2019-01-23,131.369995,135.000000,130.309998,132.889999,128.305664,22063700
2019-01-24,132.630005,133.210007,131.429993,132.529999,127.958092,6322900
2019-01-25,132.869995,134.440002,132.429993,133.970001,129.348419,5707400
2019-01-28,133.100006,134.809998,132.580002,134.270004,129.638077,5357700
2019-01-29,134.289993,135.410004,133.600006,134.330002,129.695984,5037100
2019-01-30,134.000000,135.029999,133.250000,134.380005,129.744263,4500900
2019-01-31,134.449997,134.720001,133.740005,134.419998,129.782883,4884000
2019-02-01,134.970001,135.199997,133.350006,134.100006,129.473938,3806000
2019-02-04,134.020004,135.199997,132.990005,135.190002,130.526321,3966600
2019-02-05,135.279999,135.820007,134.919998,135.550003,130.873917,5398900
2019-02-06,135.220001,136.649994,135.169998,136.320007,131.617355,4879700
2019-02-07,133.550003,134.470001,132.119995,133.190002,130.093613,4379400
2019-02-08,132.339996,133.710007,132.190002,133.710007,130.601532,3249800
2019-02-11,134.289993,135.149994,133.910004,133.990005,130.875031,3095100
2019-02-12,135.149994,136.199997,134.860001,136.050003,132.887131,3317200
2019-02-13,136.919998,137.919998,136.410004,137.520004,134.322952,4253000
2019-02-14,137.169998,137.600006,136.210007,136.479996,133.307129,2789400
2019-02-15,137.580002,138.190002,137.389999,138.029999,134.821106,3844100
2019-02-19,137.809998,138.699997,137.360001,138.699997,135.475510,3385700
2019-02-20,138.759995,139.240005,137.220001,138.000000,134.791794,3802000
2019-02-21,137.820007,138.350006,137.350006,137.839996,134.635513,2937300
2019-02-22,138.729996,139.380005,138.429993,139.250000,136.012741,3113700
2019-02-25,140.000000,140.470001,139.320007,139.460007,136.217850,3194200
2019-02-26,139.669998,140.490005,139.470001,139.720001,136.471802,3060400
2019-02-27,139.250000,139.570007,138.399994,139.169998,135.934601,2530900
2019-02-28,138.770004,139.059998,137.720001,138.130005,134.918777,3457800
2019-03-01,139.309998,140.039993,138.639999,139.199997,135.963882,3030000
2019-03-04,139.990005,140.080002,137.169998,138.429993,135.211792,3406900
2019-03-05,138.369995,138.740005,137.559998,137.880005,134.674591,4250300
2019-03-06,138.119995,138.389999,136.720001,136.979996,133.795502,2768300
2019-03-07,136.610001,136.889999,134.630005,135.360001,132.213181,4358800
2019-03-08,134.210007,135.240005,133.580002,135.089996,131.949432,3773600
2019-03-11,136.029999,137.729996,135.839996,137.710007,134.508545,3939300
2019-03-12,138.520004,139.699997,137.860001,138.279999,135.065277,3954700
2019-03-13,138.050003,139.320007,137.850006,138.559998,135.338776,3173200
2019-03-14,138.509995,138.940002,138.059998,138.789993,135.563431,2738600
2019-03-15,139.369995,140.330002,139.229996,139.429993,136.188538,7153700
2019-03-18,139.830002,140.369995,138.720001,140.210007,136.950424,3268500
2019-03-19,140.960007,141.699997,140.000000,140.490005,137.223907,3482300
2019-03-20,140.529999,140.699997,138.979996,139.600006,136.354614,3649500
2019-03-21,139.100006,142.119995,138.880005,141.440002,138.151825,3605400
2019-03-22,140.970001,141.440002,138.899994,139.449997,136.208084,3877200
2019-03-25,139.059998,139.910004,138.350006,139.179993,135.944351,2839800
2019-03-26,139.929993,141.020004,139.419998,140.220001,136.960190,2553700
2019-03-27,140.410004,140.490005,138.399994,139.240005,136.002975,3098200
2019-03-28,139.910004,140.440002,139.100006,139.919998,136.667160,2663900
2019-03-29,140.500000,141.220001,140.149994,141.100006,137.819733,3101400
2019-04-01,141.509995,143.410004,141.509995,143.300003,139.968582,3984300
2019-04-02,143.350006,143.949997,142.600006,143.000000,139.675552,2404800
2019-04-03,143.649994,144.220001,143.009995,143.630005,140.290909,2681200
2019-04-04,143.619995,144.139999,142.539993,142.779999,139.460663,2771100
2019-04-05,143.289993,143.500000,142.460007,143.279999,139.949051,2731800
2019-04-08,143.020004,143.419998,142.869995,143.389999,140.056488,2118200
2019-04-09,142.660004,142.949997,141.839996,142.110001,138.806259,3038500
2019-04-10,142.199997,143.500000,141.979996,143.020004,139.695099,2678000
2019-04-11,143.800003,144.110001,143.029999,143.779999,140.437424,2942000
2019-04-12,144.259995,144.440002,143.699997,144.350006,140.994171,2898900
2019-04-15,144.399994,144.460007,143.270004,143.899994,140.554626,3603200
2019-04-16,144.399994,145.389999,144.020004,145.139999,141.765808,6301700
2019-04-17,137.369995,141.979996,136.259995,139.110001,135.875992,12525700
2019-04-18,139.000000,140.490005,138.699997,140.330002,137.067627,4960000
2019-04-22,139.419998,140.559998,138.479996,138.889999,135.661102,4494000
2019-04-23,139.149994,140.919998,138.940002,140.440002,137.175064,4462200
2019-04-24,140.600006,141.309998,139.779999,139.949997,136.696457,2774900
2019-04-25,139.699997,139.750000,137.710007,138.630005,135.407150,2910100
2019-04-26,139.339996,139.889999,138.809998,139.440002,136.198318,2319800
2019-04-29,139.149994,139.630005,138.809998,139.050003,135.817383,2958300
2019-04-30,139.110001,140.440002,138.679993,140.270004,137.009018,4638800
2019-05-01,140.550003,141.809998,140.169998,140.559998,137.292282,3053700
2019-05-02,140.500000,141.279999,139.410004,139.589996,136.344818,3541400
2019-05-03,139.699997,141.000000,139.630005,140.250000,136.989487,2579900
2019-05-06,138.300003,140.690002,137.899994,140.380005,137.116470,2793300
2019-05-07,139.149994,139.509995,136.190002,137.639999,134.440170,4726800
2019-05-08,137.770004,138.699997,137.130005,138.000000,134.791794,3818900
2019-05-09,134.889999,135.580002,133.029999,135.339996,133.763901,4192700
2019-05-10,134.880005,135.750000,132.419998,135.320007,133.744141,3977600
2019-05-13,133.279999,133.570007,130.960007,131.419998,129.889557,4958000
2019-05-14,131.820007,134.320007,131.679993,133.309998,131.757538,3280400
2019-05-15,132.589996,134.589996,132.369995,134.399994,132.834854,2551000
2019-05-16,134.740005,136.110001,134.639999,135.880005,134.297623,3017300
2019-05-17,134.679993,135.410004,133.940002,134.320007,132.755798,2619100
2019-05-20,133.529999,135.429993,132.929993,135.119995,133.546463,3264500
2019-05-21,136.119995,137.059998,135.789993,136.449997,134.860977,2503500
2019-05-22,136.000000,136.750000,135.710007,136.350006,134.762146,1849800
2019-05-23,135.130005,135.130005,130.440002,132.389999,130.848267,5343400
2019-05-24,133.529999,134.250000,131.589996,132.279999,130.739548,2596100
2019-05-28,132.130005,132.639999,130.270004,130.460007,128.940750,4908800
2019-05-29,130.000000,130.279999,128.320007,129.690002,128.179703,3679000
2019-05-30,129.740005,129.970001,128.929993,129.570007,128.061111,2741900
2019-05-31,128.440002,128.440002,126.849998,126.989998,125.511147,3539300
2019-06-03,127.099998,128.559998,127.059998,128.270004,126.776245,4266900
2019-06-04,129.559998,132.740005,129.089996,132.690002,131.144775,3913500
2019-06-05,133.380005,133.610001,130.470001,131.490005,129.958740,3161300
2019-06-06,132.190002,132.649994,130.899994,132.220001,130.680237,2298200
2019-06-07,132.470001,134.720001,132.210007,133.309998,131.757538,2553400
2019-06-10,134.380005,135.350006,133.910004,134.740005,133.170898,2911300
2019-06-11,135.320007,136.460007,135.050003,135.949997,134.366806,3407300
2019-06-12,135.559998,135.940002,134.410004,134.869995,133.299377,2254700
2019-06-13,135.130005,136.270004,135.089996,135.759995,134.179016,2955300
2019-06-14,135.440002,135.880005,134.429993,135.149994,133.576111,2193300
2019-06-17,135.389999,136.029999,134.699997,134.949997,133.378448,2194100
2019-06-18,135.199997,137.190002,135.199997,136.380005,134.791794,2914700
2019-06-19,136.429993,138.360001,136.240005,137.080002,135.483643,2382400
2019-06-20,138.929993,139.539993,138.199997,138.850006,137.233032,3071000
2019-06-21,138.440002,139.539993,138.389999,139.199997,137.578949,5288700
2019-06-24,139.199997,140.149994,139.050003,139.350006,137.727219,2186000
2019-06-25,139.460007,139.550003,138.130005,138.360001,136.748734,2801200
2019-06-26,138.869995,139.679993,138.410004,138.520004,136.906876,2284600
2019-06-27,138.720001,139.300003,137.949997,138.520004,136.906876,2149800
2019-06-28,138.570007,139.139999,137.839996,137.899994,136.294083,6153900
2019-07-01,139.600006,141.490005,139.279999,139.880005,138.251038,3377700
2019-07-02,139.750000,140.429993,139.470001,140.220001,138.587082,2409700
2019-07-03,140.720001,141.820007,140.429993,141.539993,139.891693,1930400
2019-07-05,140.869995,141.490005,139.910004,141.380005,139.733566,2134700
2019-07-08,141.050003,141.289993,140.270004,140.570007,138.933014,2395300
2019-07-09,140.610001,140.990005,139.130005,139.330002,137.707443,3365200
2019-07-10,140.000000,141.910004,139.789993,140.470001,138.834167,2513900
2019-07-11,140.789993,141.580002,140.300003,141.240005,139.595200,2132900
2019-07-12,141.919998,142.919998,141.660004,142.740005,141.077728,2786200
2019-07-15,142.889999,143.509995,142.119995,143.320007,141.650986,2368300
2019-07-16,143.169998,144.039993,143.020004,143.529999,141.858536,3474700
2019-07-17,143.610001,143.800003,141.949997,143.070007,141.403900,6064300
2019-07-18,142.500000,150.309998,142.199997,149.630005,147.887497,12692600
2019-07-19,149.960007,151.580002,149.550003,149.679993,147.936905,7290700
2019-07-22,150.160004,151.940002,149.699997,149.740005,147.996216,4092600
2019-07-23,150.570007,150.720001,148.380005,150.380005,148.628769,3742200
2019-07-24,150.119995,151.449997,149.199997,150.029999,148.282837,2952400
2019-07-25,149.820007,150.619995,148.610001,150.389999,148.638641,3102100
2019-07-26,151.000000,151.410004,150.100006,151.360001,149.597351,2904300
2019-07-29,151.110001,151.479996,150.320007,150.880005,149.122940,2075500
2019-07-30,150.000000,150.399994,149.220001,149.770004,148.025864,2632700
2019-07-31,149.699997,150.179993,146.389999,148.240005,146.513687,3722900
2019-08-01,148.899994,152.820007,148.500000,150.320007,148.569458,6344000
2019-08-02,149.029999,152.949997,145.589996,147.250000,145.535202,8101700
2019-08-05,144.979996,145.100006,139.149994,140.759995,139.120789,7114900
2019-08-06,142.029999,142.470001,139.309998,140.729996,139.091141,5070700
2019-08-07,138.740005,139.580002,136.410004,139.110001,137.490005,5931900
2019-08-08,138.449997,140.419998,137.759995,140.100006,140.100006,5261100
2019-08-09,139.270004,139.309998,135.350006,136.130005,136.130005,5244600
2019-08-12,135.660004,135.869995,133.179993,133.669998,133.669998,4083900
2019-08-13,133.800003,136.570007,132.809998,135.789993,135.789993,4522100
2019-08-14,133.910004,134.160004,130.979996,131.250000,131.250000,5114200
2019-08-15,131.220001,132.369995,130.250000,131.919998,131.919998,3738900
2019-08-16,133.039993,134.589996,132.949997,133.759995,133.759995,3012000
2019-08-19,134.880005,136.330002,134.880005,135.039993,135.039993,3165100
2019-08-20,135.240005,135.279999,132.809998,133.000000,133.000000,3018600
2019-08-21,134.960007,135.940002,133.800003,134.250000,134.250000,2805700
2019-08-22,134.690002,135.679993,133.809998,134.320007,134.320007,2694900
2019-08-23,133.630005,134.259995,128.830002,129.570007,129.570007,4818400
2019-08-26,131.050003,131.300003,129.160004,129.990005,129.990005,2833900
2019-08-27,131.199997,131.699997,130.309998,131.169998,131.169998,4728000
2019-08-28,130.440002,132.889999,130.039993,132.759995,132.759995,2713600
2019-08-29,134.179993,135.690002,134.039993,134.880005,134.880005,2971800
2019-08-30,135.580002,136.070007,134.360001,135.529999,135.529999,2960600
2019-09-03,134.850006,134.899994,133.330002,134.100006,134.100006,2827900
2019-09-04,135.710007,136.429993,135.149994,136.320007,136.320007,2247900
2019-09-05,138.300003,141.699997,138.050003,140.970001,140.970001,5011600
2019-09-06,141.520004,141.529999,140.460007,140.570007,140.570007,2576800
2019-09-09,140.589996,143.020004,140.460007,142.600006,142.600006,4226600
2019-09-10,143.000000,145.460007,142.960007,145.050003,145.050003,4979700
2019-09-11,144.850006,145.119995,142.710007,143.600006,143.600006,3869700
2019-09-12,144.029999,144.039993,141.880005,143.619995,143.619995,2505400
2019-09-13,144.320007,144.649994,143.259995,143.669998,143.669998,2206600
2019-09-16,142.559998,143.639999,142.270004,142.479996,142.479996,1928500
2019-09-17,142.479996,142.479996,140.660004,142.199997,142.199997,2933200
2019-09-18,142.050003,142.300003,140.509995,142.220001,142.220001,1983600
2019-09-19,142.460007,145.029999,142.449997,142.970001,142.970001,3089900
2019-09-20,143.250000,143.830002,141.820007,141.880005,141.880005,5193400
2019-09-23,141.190002,142.220001,140.559998,142.070007,142.070007,1817900
2019-09-24,142.500000,142.889999,141.070007,141.679993,141.679993,3231600
2019-09-25,141.740005,143.630005,140.860001,143.160004,143.160004,2526700
2019-09-26,143.169998,143.880005,141.410004,143.550003,143.550003,2309800
2019-09-27,144.410004,145.089996,142.380005,143.240005,143.240005,2356800
2019-09-30,143.729996,146.570007,143.729996,145.419998,145.419998,3988400
2019-10-01,145.589996,147.350006,143.539993,143.660004,143.660004,2960800
2019-10-02,142.190002,142.270004,140.570007,141.690002,141.690002,3340800
2019-10-03,141.619995,142.070007,139.179993,142.020004,142.020004,2928800
2019-10-04,142.059998,143.059998,141.029999,142.990005,142.990005,2413600
2019-10-07,142.259995,142.699997,141.220001,141.279999,141.279999,2426500
2019-10-08,140.240005,140.470001,138.250000,138.380005,138.380005,3225400
2019-10-09,139.770004,140.330002,138.789993,139.669998,139.669998,2620800
2019-10-10,139.770004,141.779999,139.559998,141.130005,141.130005,2593700
2019-10-11,142.770004,144.500000,142.610001,142.759995,142.759995,2996800
2019-10-14,142.309998,142.429993,141.320007,142.039993,142.039993,2309500
2019-10-15,142.539993,143.720001,141.809998,143.000000,143.000000,3025500
2019-10-16,142.490005,142.949997,141.389999,142.110001,142.110001,5332600
2019-10-17,135.000000,136.000000,132.910004,134.259995,134.259995,15759800
2019-10-18,134.220001,134.490005,132.250000,134.089996,134.089996,7177500
2019-10-21,132.610001,133.100006,130.899994,132.580002,132.580002,6306100
2019-10-22,132.550003,134.050003,131.610001,133.960007,133.960007,4161600
2019-10-23,133.520004,134.570007,132.699997,134.380005,134.380005,3610900
2019-10-24,134.830002,135.070007,133.300003,134.070007,134.070007,2598500
2019-10-25,134.119995,135.929993,134.100006,135.440002,135.440002,2578000
2019-10-28,136.000000,136.630005,135.449997,135.970001,135.970001,3225700
2019-10-29,135.419998,135.570007,133.440002,133.820007,133.820007,4159600
2019-10-30,133.830002,135.279999,133.199997,135.250000,135.250000,2252700
2019-10-31,135.110001,135.250000,133.229996,133.729996,133.729996,3410900
2019-11-01,134.500000,135.559998,134.089996,135.529999,135.529999,3088800
2019-11-04,136.240005,137.740005,136.229996,137.669998,137.669998,3324900
2019-11-05,137.800003,138.759995,137.630005,137.889999,137.889999,3014500
2019-11-06,138.000000,138.779999,137.550003,138.779999,138.779999,4476400
