// Jest Snapshot v1, https://goo.gl/fbAQLP

exports[`test for the text, input, css properties and icons on the navbar and snapshot testing renders the component for snapshot testing 1`] = `
<div>
  <div
    className="search-company-div"
  >
    <div
      className="compare-div"
    >
      <div>
        <div
          className="profile-1"
        >
          <div
            className="firstprofilecolumn"
          >
            <img
              className="firstprofilecolumn-logo"
              src="data:image/jpeg;base64,PHN2Zy"
            />
            <p
              className="firstprofilecolumn-price"
            >
              <b>
                201
                 USD
              </b>
            </p>
            <p
              className="firstprofilecolumn-lastprice"
            >
              LAST PRICE (
              Jul 01, 2019
              )
            </p>
          </div>
          <div
            className="secondprofilecolumn"
          >
            <p
              className="secondprofilecolumn-name"
              id="positivecompany_name"
            >
              Apple Inc.
            </p>
            <p
              className="secondprofilecolumn-ticker"
            >
              AAPL
            </p>
            <p
              className="secondprofilecolumn-change"
            >
              1.81
               (
              0.9
              %)
            </p>
          </div>
        </div>
        <br />
        <div
          className="ratios-1"
          id="ratios-1"
        >
          <p
            className="ratios-heading-1"
          >
            Ratios
          </p>
        </div>
        <br />
        <div
          className="description-1"
          id="description-1"
        >
          <Accordion
            activeItems={
              Array [
                0,
              ]
            }
            allowMultiple={false}
            duration={300}
            easing="ease"
            rootTag="div"
          >
            <AccordionItem
              bodyTag="div"
              className="description-heading-1"
              rootTag="div"
              title="Company Profile :"
              titleTag="h3"
            >
              <div
                className="description-input-1"
              >
                <p>
                  Apple Pay
                </p>
              </div>
            </AccordionItem>
          </Accordion>
        </div>
        <br />
        <div
          className="statements-1"
          id="pandl-1"
        >
          <p
            className="statements-heading-1"
          >
            Profit & Loss
          </p>
          <StockSpecificSection
            headers={
              Array [
                "date",
                "Revenues",
                "EBITDA",
                "Cash   From Operating Activities",
                "Net Profit",
                "Gross Profit",
              ]
            }
            reportdata={
              Array [
                Object {
                  "Abnormal Gains/Losses": 0,
                  "Accounts Payable": 30443,
                  "Avg Basic Shares Outstanding": 4674071,
                  "Avg Diluted Shares Outstanding": 4700646,
                  "Book to Market": 0.1214,
                  "COGS": 36194,
                },
              ]
            }
          />
        </div>
        <br />
        <div
          className="bsstatements-1"
          id="balancesheet-1"
        >
          <p
            className="bsstatements-heading-1"
          >
            Balance Sheet
          </p>
          <StockSpecificSection
            headers={
              Array [
                "date",
                "Cash, Cash Equivalents & Short Term Investments",
                "Receivables",
                "Other Short Term Assets",
                "Current Assets",
                "Net PP&E",
                "Long Term Investments & Receivables",
                "Total Noncurrent Assets",
                "Total Assets",
                "Short term debt",
                "Current Liabilities",
                "Long Term Debt",
                "Total Noncurrent Liabilities",
                "Total Liabilities",
                "Retained Earnings",
                "Equity Before Minorities",
                "Total Equity",
              ]
            }
            reportdata={
              Array [
                Object {
                  "Abnormal Gains/Losses": 0,
                  "Accounts Payable": 30443,
                  "Avg Basic Shares Outstanding": 4674071,
                  "Avg Diluted Shares Outstanding": 4700646,
                  "Book to Market": 0.1214,
                  "COGS": 36194,
                },
              ]
            }
          />
        </div>
        <br />
        <div
          className="cfstatements-1"
          id="cashflow-1"
        >
          <p
            className="cfstatements-heading-1"
          >
            Cash Flow
          </p>
          <StockSpecificSection
            headers={
              Array [
                "date",
                "Depreciation & Amortisation",
                "Change in Working Capital",
                "Cash From Operating Activities",
                "Net Change in PP&E & Intangibles",
                "Cash From Investing Activities",
                "Dividends",
                "Cash From Financing Activities",
                "Net Change in Cash",
              ]
            }
            reportdata={
              Array [
                Object {
                  "Abnormal Gains/Losses": 0,
                  "Accounts Payable": 30443,
                  "Avg Basic Shares Outstanding": 4674071,
                  "Avg Diluted Shares Outstanding": 4700646,
                  "Book to Market": 0.1214,
                  "COGS": 36194,
                },
              ]
            }
          />
        </div>
      </div>
    </div>
    <div
      className="compare-div"
    >
      <div>
        <div
          className="profile-1"
        >
          <div
            className="firstprofilecolumn"
          >
            <img
              className="firstprofilecolumn-logo"
              src="data:image/jpeg;base64,PHN2Zy"
            />
            <p
              className="firstprofilecolumn-price"
            >
              <b>
                201
                 USD
              </b>
            </p>
            <p
              className="firstprofilecolumn-lastprice"
            >
              LAST PRICE (
              Jul 01, 2019
              )
            </p>
          </div>
          <div
            className="secondprofilecolumn"
          >
            <p
              className="secondprofilecolumn-name"
              id="positivecompany_name"
            >
              Apple Inc.
            </p>
            <p
              className="secondprofilecolumn-ticker"
            >
              AAPL
            </p>
            <p
              className="secondprofilecolumn-change"
            >
              1.81
               (
              0.9
              %)
            </p>
          </div>
        </div>
        <br />
        <div
          className="ratios-1"
          id="ratios-2"
        >
          <p
            className="ratios-heading-1"
          >
            Ratios
          </p>
        </div>
        <br />
        <div
          className="description-1"
          id="description-1"
        >
          <Accordion
            activeItems={
              Array [
                0,
              ]
            }
            allowMultiple={false}
            duration={300}
            easing="ease"
            rootTag="div"
          >
            <AccordionItem
              bodyTag="div"
              className="description-heading-1"
              rootTag="div"
              title="Company Profile :"
              titleTag="h3"
            >
              <div
                className="description-input-1"
              >
                <p>
                  Apple Pay
                </p>
              </div>
            </AccordionItem>
          </Accordion>
        </div>
        <br />
        <div
          className="statements-1"
          id="pandl-2"
        >
          <p
            className="statements-heading"
          >
            Profit & Loss
          </p>
          <StockSpecificSection
            headers={
              Array [
                "date",
                "Revenues",
                "EBITDA",
                "Cash   From Operating Activities",
                "Net Profit",
                "Gross Profit",
              ]
            }
            reportdata={Array []}
          />
        </div>
        <br />
        <div
          className="bsstatements-1"
          id="balancesheet-2"
        >
          <p
            className="bsstatements-heading"
          >
            Balance Sheet
          </p>
          <StockSpecificSection
            headers={
              Array [
                "date",
                "Cash, Cash Equivalents & Short Term Investments",
                "Receivables",
                "Other Short Term Assets",
                "Current Assets",
                "Net PP&E",
                "Long Term Investments & Receivables",
                "Total Noncurrent Assets",
                "Total Assets",
                "Short term debt",
                "Current Liabilities",
                "Long Term Debt",
                "Total Noncurrent Liabilities",
                "Total Liabilities",
                "Retained Earnings",
                "Equity Before Minorities",
                "Total Equity",
              ]
            }
            reportdata={Array []}
          />
        </div>
        <br />
        <div
          className="cfstatements-1"
          id="cashflow-2"
        >
          <p
            className="cfstatements-heading-1"
          >
            Cash Flow
          </p>
          <StockSpecificSection
            headers={
              Array [
                "date",
                "Depreciation & Amortisation",
                "Change in Working Capital",
                "Cash From Operating Activities",
                "Net Change in PP&E & Intangibles",
                "Cash From Investing Activities",
                "Dividends",
                "Cash From Financing Activities",
                "Net Change in Cash",
              ]
            }
            reportdata={Array []}
          />
        </div>
      </div>
    </div>
  </div>
</div>
`;
